﻿
DisplayName "サバサ"



EVENT   1
 PAGE   1
  ShowMessageFace("",0,0,2,1)
  ShowMessage("扉は固く閉ざされている……")
  0()



EVENT   2
 PAGE   1
  ShowMessageFace("",0,0,2,1)
  ShowMessage("扉は固く閉ざされている……")
  0()



EVENT   3
 PAGE   1
  ShowMessageFace("",0,0,2,1)
  ShowMessage("扉は固く閉ざされている……")
  0()



EVENT   4
 PAGE   1
  ShowMessageFace("",0,0,2,1)
  ShowMessage("扉は固く閉ざされている……")
  0()



EVENT   5
 PAGE   1
  ShowMessageFace("",0,0,2,1)
  ShowMessage("扉は固く閉ざされている……")
  0()



EVENT   6
 PAGE   1
  ShowMessageFace("vendetta_fc1",0,0,2,1)
  ShowMessage("\\n<ヴェンデッタ>ふふっ、美味しそうなボウヤ……")
  ShowMessage("ちょっと大人の吸い方をしてあげましょうか……？")
  ShowMessageFace("",0,0,2,2)
  ShowMessage("\\n<Young Boy>た、たすけて……")
  ShowMessageFace("ruka_fc1",0,0,2,3)
  ShowMessage("\\n<Luka>やめろっ！")
  If(4,118,0)
   ShowMessageFace("meia_fc1",3,0,2,4)
   ShowMessage("\\n<Meia>その少年を離しなさい！")
   0()
  EndIf()
  Battle(0,810,false,false)
  ChangeSwitch(2237,2237,0)
  ShowMessageFace("",0,0,2,5)
  ShowMessage("\\n<Young Boy>ありがとう、勇者さま！　これ、使って！")
  250(bytes(0x04,0x08,0x6f,0x3a,0x0c,0x52,0x50,0x47,0x3a,0x3a,0x53,0x45,0x08,0x3a,0x0a,0x40,0x6e,0x61,0x6d,0x65,0x49,0x22,0x0a,0x49,0x74,0x65,0x6d,0x31,0x06,0x3a,0x06,0x45,0x54,0x3a,0x0b,0x40,0x70,0x69,0x74,0x63,0x68,0x69,0x69,0x3a,0x0c,0x40,0x76,0x6f,0x6c,0x75,0x6d,0x65,0x69,0x55))
  ChangeInventory_Item(1,0,0,1)
  EndEventProcessing()
  0()
 PAGE   2
  // condition: switch 2237 is ON
  0()



EVENT   7
 PAGE   1
  If(0,2237,1)
   ShowMessageFace("vendetta_fc1",0,0,2,1)
   ShowMessage("\\n<ヴェンデッタ>ふふっ、美味しそうなボウヤ……")
   ShowMessage("ちょっと大人の吸い方をしてあげましょうか……？")
   ShowMessageFace("",0,0,2,2)
   ShowMessage("\\n<Young Boy>た、たすけて……")
   0()
  EndIf()
  If(0,2237,0)
   ShowMessageFace("",0,0,2,3)
   ShowMessage("\\n<Young Boy>ボク、お兄ちゃんみたいに強くてかっこいい勇者になる！")
   0()
  EndIf()
  0()



EVENT   8
 PAGE   1
  ShowMessageFace("conquista_fc1",0,0,2,1)
  ShowMessage("\\n<コンキスタ>勇者か……我が餌食となれ！")
  If(4,520,0)
   ShowMessageFace("lazarus3_fc1",0,0,2,2)
   ShowMessage("\\n<Lazarus>それで、自分が餌食にされる覚悟はあるのか……？")
   0()
  EndIf()
  Battle(0,808,false,false)
  TemporaryRemoveEvent()
  0()



EVENT   9
 PAGE   1
  ShowMessageFace("",0,0,2,1)
  ShowMessage("\\n<あらくれ>干涸らびそうだ……")
  0()



EVENT   10
 PAGE   1
  ShowMessageFace("",0,0,2,1)
  ShowMessage("扉は固く閉ざされている……")
  0()



EVENT   11
 PAGE   1
  ShowMessageFace("",0,0,2,1)
  ShowMessage("\\n<騎士>サラ様……")
  ShowMessage("お慕いしておりました……")
  0()



EVENT   12
 PAGE   1
  ShowMessageFace("",2,0,2,1)
  ShowMessage("\\n<騎士>なんと強力な妖魔……しかし決して背は見せん！")
  ShowMessageFace("vendetta_fc1",0,0,2,2)
  ShowMessage("\\n<ヴェンデッタ>いいですね……強い人間の血は大好物です……")
  0()



EVENT   13
 PAGE   1
  ShowMessageFace("",2,0,2,1)
  ShowMessage("\\n<騎士>なんと強力な妖魔……しかし決して背は見せん！")
  ShowMessageFace("vendetta_fc1",0,0,2,2)
  ShowMessage("\\n<ヴェンデッタ>いいですね……強い人間の血は大好物です……")
  0()



EVENT   14
 PAGE   1
  ShowMessageFace("vampire_fc1",0,0,2,1)
  ShowMessage("\\n<ヴァンパイア>さあ、その血を……")
  ShowMessageFace("wani_fc1",0,0,2,2)
  ShowMessage("\\n<ワニ娘>がぁ……")
  205(0,bytes(0x04,0x08,0x6f,0x3a,0x13,0x52,0x50,0x47,0x3a,0x3a,0x4d,0x6f,0x76,0x65,0x52,0x6f,0x75,0x74,0x65,0x09,0x3a,0x0c,0x40,0x72,0x65,0x70,0x65,0x61,0x74,0x46,0x3a,0x0f,0x40,0x73,0x6b,0x69,0x70,0x70,0x61,0x62,0x6c,0x65,0x46,0x3a,0x0a,0x40,0x77,0x61,0x69,0x74,0x54,0x3a,0x0a,0x40,0x6c,0x69,0x73,0x74,0x5b,0x07,0x6f,0x3a,0x15,0x52,0x50,0x47,0x3a,0x3a,0x4d,0x6f,0x76,0x65,0x43,0x6f,0x6d,0x6d,0x61,0x6e,0x64,0x07,0x3a,0x0a,0x40,0x63,0x6f,0x64,0x65,0x69,0x15,0x3a,0x10,0x40,0x70,0x61,0x72,0x61,0x6d,0x65,0x74,0x65,0x72,0x73,0x5b,0x00,0x6f,0x3b,0x0a,0x07,0x3b,0x0b,0x69,0x00,0x3b,0x0c,0x5b,0x00))
  ShowMessageFace("vampire_fc1",0,0,2,3)
  ShowMessage("\\n<ヴァンパイア>……何かしら、水辺の方……？")
  ChangeSwitch(31,31,0)
  Wait(30)
  250(bytes(0x04,0x08,0x6f,0x3a,0x0c,0x52,0x50,0x47,0x3a,0x3a,0x53,0x45,0x08,0x3a,0x0a,0x40,0x6e,0x61,0x6d,0x65,0x49,0x22,0x0b,0x57,0x61,0x74,0x65,0x72,0x31,0x06,0x3a,0x06,0x45,0x54,0x3a,0x0b,0x40,0x70,0x69,0x74,0x63,0x68,0x69,0x69,0x3a,0x0c,0x40,0x76,0x6f,0x6c,0x75,0x6d,0x65,0x69,0x55))
  205(72,bytes(0x04,0x08,0x6f,0x3a,0x13,0x52,0x50,0x47,0x3a,0x3a,0x4d,0x6f,0x76,0x65,0x52,0x6f,0x75,0x74,0x65,0x09,0x3a,0x0c,0x40,0x72,0x65,0x70,0x65,0x61,0x74,0x46,0x3a,0x0f,0x40,0x73,0x6b,0x69,0x70,0x70,0x61,0x62,0x6c,0x65,0x46,0x3a,0x0a,0x40,0x77,0x61,0x69,0x74,0x54,0x3a,0x0a,0x40,0x6c,0x69,0x73,0x74,0x5b,0x09,0x6f,0x3a,0x15,0x52,0x50,0x47,0x3a,0x3a,0x4d,0x6f,0x76,0x65,0x43,0x6f,0x6d,0x6d,0x61,0x6e,0x64,0x07,0x3a,0x0a,0x40,0x63,0x6f,0x64,0x65,0x69,0x09,0x3a,0x10,0x40,0x70,0x61,0x72,0x61,0x6d,0x65,0x74,0x65,0x72,0x73,0x5b,0x00,0x6f,0x3b,0x0a,0x07,0x3b,0x0b,0x69,0x09,0x3b,0x0c,0x5b,0x00,0x6f,0x3b,0x0a,0x07,0x3b,0x0b,0x69,0x09,0x3b,0x0c,0x5b,0x00,0x6f,0x3b,0x0a,0x07,0x3b,0x0b,0x69,0x00,0x3b,0x0c,0x5b,0x00))
  205(72,bytes(0x04,0x08,0x6f,0x3a,0x13,0x52,0x50,0x47,0x3a,0x3a,0x4d,0x6f,0x76,0x65,0x52,0x6f,0x75,0x74,0x65,0x09,0x3a,0x0c,0x40,0x72,0x65,0x70,0x65,0x61,0x74,0x46,0x3a,0x0f,0x40,0x73,0x6b,0x69,0x70,0x70,0x61,0x62,0x6c,0x65,0x46,0x3a,0x0a,0x40,0x77,0x61,0x69,0x74,0x46,0x3a,0x0a,0x40,0x6c,0x69,0x73,0x74,0x5b,0x09,0x6f,0x3a,0x15,0x52,0x50,0x47,0x3a,0x3a,0x4d,0x6f,0x76,0x65,0x43,0x6f,0x6d,0x6d,0x61,0x6e,0x64,0x07,0x3a,0x0a,0x40,0x63,0x6f,0x64,0x65,0x69,0x06,0x3a,0x10,0x40,0x70,0x61,0x72,0x61,0x6d,0x65,0x74,0x65,0x72,0x73,0x5b,0x00,0x6f,0x3b,0x0a,0x07,0x3b,0x0b,0x69,0x06,0x3b,0x0c,0x5b,0x00,0x6f,0x3b,0x0a,0x07,0x3b,0x0b,0x69,0x06,0x3b,0x0c,0x5b,0x00,0x6f,0x3b,0x0a,0x07,0x3b,0x0b,0x69,0x00,0x3b,0x0c,0x5b,0x00))
  205(0,bytes(0x04,0x08,0x6f,0x3a,0x13,0x52,0x50,0x47,0x3a,0x3a,0x4d,0x6f,0x76,0x65,0x52,0x6f,0x75,0x74,0x65,0x09,0x3a,0x0c,0x40,0x72,0x65,0x70,0x65,0x61,0x74,0x46,0x3a,0x0f,0x40,0x73,0x6b,0x69,0x70,0x70,0x61,0x62,0x6c,0x65,0x46,0x3a,0x0a,0x40,0x77,0x61,0x69,0x74,0x54,0x3a,0x0a,0x40,0x6c,0x69,0x73,0x74,0x5b,0x0c,0x6f,0x3a,0x15,0x52,0x50,0x47,0x3a,0x3a,0x4d,0x6f,0x76,0x65,0x43,0x6f,0x6d,0x6d,0x61,0x6e,0x64,0x07,0x3a,0x0a,0x40,0x63,0x6f,0x64,0x65,0x69,0x22,0x3a,0x10,0x40,0x70,0x61,0x72,0x61,0x6d,0x65,0x74,0x65,0x72,0x73,0x5b,0x06,0x69,0x0b,0x6f,0x3b,0x0a,0x07,0x3b,0x0b,0x69,0x23,0x3b,0x0c,0x5b,0x06,0x69,0x0a,0x6f,0x3b,0x0a,0x07,0x3b,0x0b,0x69,0x2a,0x3b,0x0c,0x5b,0x00,0x6f,0x3b,0x0a,0x07,0x3b,0x0b,0x69,0x28,0x3b,0x0c,0x5b,0x00,0x6f,0x3b,0x0a,0x07,0x3b,0x0b,0x69,0x06,0x3b,0x0c,0x5b,0x00,0x6f,0x3b,0x0a,0x07,0x3b,0x0b,0x69,0x06,0x3b,0x0c,0x5b,0x00,0x6f,0x3b,0x0a,0x07,0x3b,0x0b,0x69,0x00,0x3b,0x0c,0x5b,0x00))
  ChangeSwitch(2240,2240,0)
  ChangeSwitch(31,31,1)
  250(bytes(0x04,0x08,0x6f,0x3a,0x0c,0x52,0x50,0x47,0x3a,0x3a,0x53,0x45,0x08,0x3a,0x0a,0x40,0x6e,0x61,0x6d,0x65,0x49,0x22,0x0b,0x57,0x61,0x74,0x65,0x72,0x31,0x06,0x3a,0x06,0x45,0x54,0x3a,0x0b,0x40,0x70,0x69,0x74,0x63,0x68,0x69,0x69,0x3a,0x0c,0x40,0x76,0x6f,0x6c,0x75,0x6d,0x65,0x69,0x55))
  ShowMessageFace("vampire_fc1",2,0,2,4)
  ShowMessage("\\n<ヴァンパイア>きゃぁぁ――！！")
  ShowMessageFace("wani_fc1",0,0,2,5)
  ShowMessage("\\n<ワニ娘>がぶ、がぶ……")
  ShowMessageFace("ruka_fc1",0,0,2,6)
  ShowMessage("\\n<Luka>……………………")
  If(4,154,0)
   ShowMessageFace("wani_fc1",1,0,2,7)
   ShowMessage("\\n<ガー>おみごと……♪")
   0()
  EndIf()
  0()
 PAGE   2
  // condition: switch 2240 is ON
  0()



EVENT   15
 PAGE   1
  ShowMessageFace("",0,0,2,1)
  ShowMessage("\\n<Man>サバサも終わりなのか……？")
  0()



EVENT   16
 PAGE   1
  ShowMessageFace("",0,0,2,1)
  ShowMessage("\\n<Soldier>あぅぅぅ……")
  0()



EVENT   17
 PAGE   1
  ShowMessageFace("",0,0,2,1)
  ShowMessage("\\n<Soldier>もっと訓練していれば……")
  0()



EVENT   18
 PAGE   1
  ShowMessageFace("vendetta_fc1",0,0,2,1)
  ShowMessage("\\n<ヴェンデッタ>私に体液をくれませんか……？")
  ShowMessage("代償に、快楽をたっぷり与えてあげますから……")
  If(4,283,0)
   ShowMessageFace("maccubus_fc1",3,0,2,2)
   ShowMessage("\\n<メリッサ>いいわね、遊んでもらおうかしら……？")
   0()
  EndIf()
  Battle(0,809,false,false)
  TemporaryRemoveEvent()
  0()



EVENT   19
 PAGE   1
  ShowMessageFace("",0,0,2,1)
  ShowMessage("\\n<Soldier>体が……冷たい……")
  0()



EVENT   20
 PAGE   1
  ShowMessageFace("",0,0,2,1)
  ShowMessage("\\n<Soldier>……………………")
  0()



EVENT   21
 PAGE   1
  250(bytes(0x04,0x08,0x6f,0x3a,0x0c,0x52,0x50,0x47,0x3a,0x3a,0x53,0x45,0x08,0x3a,0x0a,0x40,0x6e,0x61,0x6d,0x65,0x49,0x22,0x0a,0x4f,0x70,0x65,0x6e,0x31,0x06,0x3a,0x06,0x45,0x54,0x3a,0x0b,0x40,0x70,0x69,0x74,0x63,0x68,0x69,0x69,0x3a,0x0c,0x40,0x76,0x6f,0x6c,0x75,0x6d,0x65,0x69,0x55))
  205(0,bytes(0x04,0x08,0x6f,0x3a,0x13,0x52,0x50,0x47,0x3a,0x3a,0x4d,0x6f,0x76,0x65,0x52,0x6f,0x75,0x74,0x65,0x09,0x3a,0x0c,0x40,0x72,0x65,0x70,0x65,0x61,0x74,0x46,0x3a,0x0f,0x40,0x73,0x6b,0x69,0x70,0x70,0x61,0x62,0x6c,0x65,0x46,0x3a,0x0a,0x40,0x77,0x61,0x69,0x74,0x54,0x3a,0x0a,0x40,0x6c,0x69,0x73,0x74,0x5b,0x0c,0x6f,0x3a,0x15,0x52,0x50,0x47,0x3a,0x3a,0x4d,0x6f,0x76,0x65,0x43,0x6f,0x6d,0x6d,0x61,0x6e,0x64,0x07,0x3a,0x0a,0x40,0x63,0x6f,0x64,0x65,0x69,0x16,0x3a,0x10,0x40,0x70,0x61,0x72,0x61,0x6d,0x65,0x74,0x65,0x72,0x73,0x5b,0x00,0x6f,0x3b,0x0a,0x07,0x3b,0x0b,0x69,0x14,0x3b,0x0c,0x5b,0x06,0x69,0x08,0x6f,0x3b,0x0a,0x07,0x3b,0x0b,0x69,0x17,0x3b,0x0c,0x5b,0x00,0x6f,0x3b,0x0a,0x07,0x3b,0x0b,0x69,0x14,0x3b,0x0c,0x5b,0x06,0x69,0x08,0x6f,0x3b,0x0a,0x07,0x3b,0x0b,0x69,0x18,0x3b,0x0c,0x5b,0x00,0x6f,0x3b,0x0a,0x07,0x3b,0x0b,0x69,0x2a,0x3b,0x0c,0x5b,0x00,0x6f,0x3b,0x0a,0x07,0x3b,0x0b,0x69,0x00,0x3b,0x0c,0x5b,0x00))
  205(-1,bytes(0x04,0x08,0x6f,0x3a,0x13,0x52,0x50,0x47,0x3a,0x3a,0x4d,0x6f,0x76,0x65,0x52,0x6f,0x75,0x74,0x65,0x09,0x3a,0x0c,0x40,0x72,0x65,0x70,0x65,0x61,0x74,0x46,0x3a,0x0f,0x40,0x73,0x6b,0x69,0x70,0x70,0x61,0x62,0x6c,0x65,0x54,0x3a,0x0a,0x40,0x77,0x61,0x69,0x74,0x54,0x3a,0x0a,0x40,0x6c,0x69,0x73,0x74,0x5b,0x07,0x6f,0x3a,0x15,0x52,0x50,0x47,0x3a,0x3a,0x4d,0x6f,0x76,0x65,0x43,0x6f,0x6d,0x6d,0x61,0x6e,0x64,0x07,0x3a,0x0a,0x40,0x63,0x6f,0x64,0x65,0x69,0x11,0x3a,0x10,0x40,0x70,0x61,0x72,0x61,0x6d,0x65,0x74,0x65,0x72,0x73,0x5b,0x00,0x6f,0x3b,0x0a,0x07,0x3b,0x0b,0x69,0x00,0x3b,0x0c,0x5b,0x00))
  250(bytes(0x04,0x08,0x6f,0x3a,0x0c,0x52,0x50,0x47,0x3a,0x3a,0x53,0x45,0x08,0x3a,0x0a,0x40,0x6e,0x61,0x6d,0x65,0x49,0x22,0x09,0x4d,0x6f,0x76,0x65,0x06,0x3a,0x06,0x45,0x54,0x3a,0x0b,0x40,0x70,0x69,0x74,0x63,0x68,0x69,0x69,0x3a,0x0c,0x40,0x76,0x6f,0x6c,0x75,0x6d,0x65,0x69,0x55))
  TeleportPlayer(0,477,131,98,0,0)
  0()



EVENT   22
 PAGE   1
  250(bytes(0x04,0x08,0x6f,0x3a,0x0c,0x52,0x50,0x47,0x3a,0x3a,0x53,0x45,0x08,0x3a,0x0a,0x40,0x6e,0x61,0x6d,0x65,0x49,0x22,0x09,0x4d,0x6f,0x76,0x65,0x06,0x3a,0x06,0x45,0x54,0x3a,0x0b,0x40,0x70,0x69,0x74,0x63,0x68,0x69,0x69,0x3a,0x0c,0x40,0x76,0x6f,0x6c,0x75,0x6d,0x65,0x69,0x55))
  TeleportPlayer(0,2,103,293,2,0)
  0()



EVENT   23
 PAGE   1
  250(bytes(0x04,0x08,0x6f,0x3a,0x0c,0x52,0x50,0x47,0x3a,0x3a,0x53,0x45,0x08,0x3a,0x0a,0x40,0x6e,0x61,0x6d,0x65,0x49,0x22,0x09,0x4d,0x6f,0x76,0x65,0x06,0x3a,0x06,0x45,0x54,0x3a,0x0b,0x40,0x70,0x69,0x74,0x63,0x68,0x69,0x69,0x3a,0x0c,0x40,0x76,0x6f,0x6c,0x75,0x6d,0x65,0x69,0x55))
  TeleportPlayer(0,2,103,293,2,0)
  0()



EVENT   24
 PAGE   1
  250(bytes(0x04,0x08,0x6f,0x3a,0x0c,0x52,0x50,0x47,0x3a,0x3a,0x53,0x45,0x08,0x3a,0x0a,0x40,0x6e,0x61,0x6d,0x65,0x49,0x22,0x09,0x4d,0x6f,0x76,0x65,0x06,0x3a,0x06,0x45,0x54,0x3a,0x0b,0x40,0x70,0x69,0x74,0x63,0x68,0x69,0x69,0x3a,0x0c,0x40,0x76,0x6f,0x6c,0x75,0x6d,0x65,0x69,0x55))
  TeleportPlayer(0,2,103,293,2,0)
  0()



EVENT   25
 PAGE   1
  250(bytes(0x04,0x08,0x6f,0x3a,0x0c,0x52,0x50,0x47,0x3a,0x3a,0x53,0x45,0x08,0x3a,0x0a,0x40,0x6e,0x61,0x6d,0x65,0x49,0x22,0x09,0x4d,0x6f,0x76,0x65,0x06,0x3a,0x06,0x45,0x54,0x3a,0x0b,0x40,0x70,0x69,0x74,0x63,0x68,0x69,0x69,0x3a,0x0c,0x40,0x76,0x6f,0x6c,0x75,0x6d,0x65,0x69,0x55))
  TeleportPlayer(0,2,103,293,2,0)
  0()



EVENT   26
 PAGE   1
  250(bytes(0x04,0x08,0x6f,0x3a,0x0c,0x52,0x50,0x47,0x3a,0x3a,0x53,0x45,0x08,0x3a,0x0a,0x40,0x6e,0x61,0x6d,0x65,0x49,0x22,0x09,0x4d,0x6f,0x76,0x65,0x06,0x3a,0x06,0x45,0x54,0x3a,0x0b,0x40,0x70,0x69,0x74,0x63,0x68,0x69,0x69,0x3a,0x0c,0x40,0x76,0x6f,0x6c,0x75,0x6d,0x65,0x69,0x55))
  TeleportPlayer(0,2,103,293,2,0)
  0()



EVENT   28
 PAGE   1
  ShowMessageFace("conquista_fc1",0,0,2,1)
  ShowMessage("\\n<コンキスタ>勇者か……我が餌食となれ！")
  If(4,213,0)
   ShowMessageFace("kerberos_fc1",0,0,2,2)
   ShowMessage("\\n<Caesar>吸血鬼か……相手にとって、不足はない！")
   0()
  EndIf()
  Battle(0,808,false,false)
  TemporaryRemoveEvent()
  0()



EVENT   29
 PAGE   1
  ShowMessageFace("",0,0,2,1)
  ShowMessage("\\n<おばさん>大丈夫かい！？　今、手当をするよ！")
  0()



EVENT   30
 PAGE   1
  250(bytes(0x04,0x08,0x6f,0x3a,0x0c,0x52,0x50,0x47,0x3a,0x3a,0x53,0x45,0x08,0x3a,0x0a,0x40,0x6e,0x61,0x6d,0x65,0x49,0x22,0x09,0x4d,0x6f,0x76,0x65,0x06,0x3a,0x06,0x45,0x54,0x3a,0x0b,0x40,0x70,0x69,0x74,0x63,0x68,0x69,0x69,0x3a,0x0c,0x40,0x76,0x6f,0x6c,0x75,0x6d,0x65,0x69,0x55))
  TeleportPlayer(0,2,103,293,2,0)
  0()



EVENT   31
 PAGE   1
  ChangeSelfSwitch("A",0)
  ShowMessageFace("ruka_fc1",0,0,2,1)
  ShowMessage("\\n<Luka>くっ、サバサもひどい有様だな……！")
  If(0,4,0)
   ShowMessageFace("alice_fc5",2,0,2,2)
   ShowMessage("\\n<Alice>攻め寄せているのは、吸血鬼の軍団か……")
   ShowMessage("奴等は魔物の中でも上位だ、きつい戦いになるぞ。")
   0()
  EndIf()
  If(0,5,0)
   ShowMessageFace("iriasu_fc4",7,0,2,3)
   ShowMessage("\\n<Ilias>攻め寄せているのは、吸血鬼の軍団ですね……")
   ShowMessage("奴等は魔物の中でも上位です、きつい戦いに備えなさい。")
   0()
  EndIf()
  If(4,45,0)
   ShowMessageFace("alicetromeria_fc1",4,0,2,4)
   ShowMessage("\\n<Alicetroemeria>夜の魔物が、昼間のお茶会……？")
   ShowMessage("日光の牙に引き裂かれないといいのですけれど。")
   0()
  EndIf()
  ShowMessageFace("sara_fc1",3,0,2,5)
  ShowMessage("\\n<Sara>申し訳ないけれど、少しパーティを離れるわ。")
  ShowMessage("軍の指揮を執らないと！")
  ChangeSwitch(31,31,0)
  ChangeSwitch(1529,1529,1)
  ChangePartyMember(529,1,0)
  205(87,bytes(0x04,0x08,0x6f,0x3a,0x13,0x52,0x50,0x47,0x3a,0x3a,0x4d,0x6f,0x76,0x65,0x52,0x6f,0x75,0x74,0x65,0x09,0x3a,0x0c,0x40,0x72,0x65,0x70,0x65,0x61,0x74,0x46,0x3a,0x0f,0x40,0x73,0x6b,0x69,0x70,0x70,0x61,0x62,0x6c,0x65,0x46,0x3a,0x0a,0x40,0x77,0x61,0x69,0x74,0x54,0x3a,0x0a,0x40,0x6c,0x69,0x73,0x74,0x5b,0x16,0x6f,0x3a,0x15,0x52,0x50,0x47,0x3a,0x3a,0x4d,0x6f,0x76,0x65,0x43,0x6f,0x6d,0x6d,0x61,0x6e,0x64,0x07,0x3a,0x0a,0x40,0x63,0x6f,0x64,0x65,0x69,0x09,0x3a,0x10,0x40,0x70,0x61,0x72,0x61,0x6d,0x65,0x74,0x65,0x72,0x73,0x5b,0x00,0x6f,0x3b,0x0a,0x07,0x3b,0x0b,0x69,0x09,0x3b,0x0c,0x5b,0x00,0x6f,0x3b,0x0a,0x07,0x3b,0x0b,0x69,0x09,0x3b,0x0c,0x5b,0x00,0x6f,0x3b,0x0a,0x07,0x3b,0x0b,0x69,0x09,0x3b,0x0c,0x5b,0x00,0x6f,0x3b,0x0a,0x07,0x3b,0x0b,0x69,0x09,0x3b,0x0c,0x5b,0x00,0x6f,0x3b,0x0a,0x07,0x3b,0x0b,0x69,0x09,0x3b,0x0c,0x5b,0x00,0x6f,0x3b,0x0a,0x07,0x3b,0x0b,0x69,0x07,0x3b,0x0c,0x5b,0x00,0x6f,0x3b,0x0a,0x07,0x3b,0x0b,0x69,0x07,0x3b,0x0c,0x5b,0x00,0x6f,0x3b,0x0a,0x07,0x3b,0x0b,0x69,0x07,0x3b,0x0c,0x5b,0x00,0x6f,0x3b,0x0a,0x07,0x3b,0x0b,0x69,0x07,0x3b,0x0c,0x5b,0x00,0x6f,0x3b,0x0a,0x07,0x3b,0x0b,0x69,0x07,0x3b,0x0c,0x5b,0x00,0x6f,0x3b,0x0a,0x07,0x3b,0x0b,0x69,0x07,0x3b,0x0c,0x5b,0x00,0x6f,0x3b,0x0a,0x07,0x3b,0x0b,0x69,0x07,0x3b,0x0c,0x5b,0x00,0x6f,0x3b,0x0a,0x07,0x3b,0x0b,0x69,0x07,0x3b,0x0c,0x5b,0x00,0x6f,0x3b,0x0a,0x07,0x3b,0x0b,0x69,0x07,0x3b,0x0c,0x5b,0x00,0x6f,0x3b,0x0a,0x07,0x3b,0x0b,0x69,0x07,0x3b,0x0c,0x5b,0x00,0x6f,0x3b,0x0a,0x07,0x3b,0x0b,0x69,0x00,0x3b,0x0c,0x5b,0x00))
  ChangeSwitch(31,31,1)
  ShowMessageFace("",0,0,2,6)
  ShowMessage("サラが一時的にパーティから離脱した！")
  If(0,6,0)
   ShowMessageFace("sonia_fc2",2,0,2,7)
   ShowMessage("\\n<Sonya>サラ、大丈夫なのかな……")
   ShowMessage("自分の国がこんな事になっちゃって……")
   0()
  Else()
   ShowMessageFace("ruka_fc1",0,0,2,8)
   ShowMessage("\\n<Luka>サラ、大丈夫なのかな……")
   ShowMessage("自分の国がこんな事になって……")
   0()
  EndIf()
  If(4,531,0)
   ShowMessageFace("saniria_fc2",0,0,2,9)
   ShowMessage("\\n<King of San Ilia>彼女は女王として遜色ない力量を持っているが……")
   ShowMessage("今回ばかりは情勢が悪いな。")
   0()
  EndIf()
  If(0,4,0)
   ShowMessageFace("alice_fc5",2,0,2,10)
   ShowMessage("\\n<Alice>相手は吸血鬼の集団……")
   ShowMessage("いかに精強といえど、人間の騎士団では長く押しとどめられまい。")
   ShowMessageFace("alice_fc5",2,0,2,11)
   ShowMessage("\\n<Alice>一刻も早く敵の統率者を見つけ出し、我々で討つぞ！")
   ShowMessage("それ以外、劣勢を挽回する手はない！")
   0()
  EndIf()
  If(0,5,0)
   ShowMessageFace("iriasu_fc4",7,0,2,12)
   ShowMessage("\\n<Ilias>相手は吸血鬼の集団です……")
   ShowMessage("いかに精強とはいえ、人間の騎士団では長く持たないでしょう。")
   ShowMessageFace("iriasu_fc4",7,0,2,13)
   ShowMessage("\\n<Ilias>一刻も早く敵の統率者を見つけ出し、我々で討ちます！")
   ShowMessage("それ以外、劣勢を覆す手はありません！")
   0()
  EndIf()
  If(4,218,0)
   ShowMessageFace("nyumaou_fc1",0,0,2,14)
   ShowMessage("\\n<Cow Demon Queen>ふん！　吸血鬼め、何するものぞ！")
   ShowMessage("妾が叩きのめしてくれるわ！")
   0()
  EndIf()
  If(4,66,0)
   ShowMessageFace("vgirl_fc1",2,0,2,15)
   ShowMessage("\\n<Vanilla>同胞と戦うのは、気が引けるぞ……")
   0()
  EndIf()
  If(4,302,0)
   ShowMessageFace("vampire_fc1",2,0,2,16)
   ShowMessage("\\n<ヴィルヘルミナ>肩身が狭いわね……")
   0()
  EndIf()
  EndEventProcessing()
  0()
 PAGE   2
  // condition: self-switch A is ON
  0()



EVENT   32
 PAGE   1
  ShowMessageFace("",0,0,2,1)
  ShowMessage("\\n<Soldier>申し訳ありません……")
  0()



EVENT   33
 PAGE   1
  ShowMessageFace("",0,0,2,1)
  ShowMessage("\\n<騎士>血を吸い取られた……")
  0()



EVENT   34
 PAGE   1
  If(0,2234,1)
   ShowMessageFace("vampire_fc1",0,0,2,1)
   ShowMessage("\\n<ヴァンパイア>その血、最後の一滴まで吸い尽くしてあげる……")
   ShowMessageFace("",0,0,2,2)
   ShowMessage("\\n<Youth>やめて……あ、あぁぁぁぁ――！！")
   0()
  EndIf()
  If(0,2234,0)
   ShowMessageFace("",0,0,2,3)
   ShowMessage("\\n<Youth>吸血鬼に血を吸われるって、あんなに気持ちいいんだな……")
   ShowMessage("いけない事を覚えてしまった気がするよ……")
   0()
  EndIf()
  0()



EVENT   35
 PAGE   1
  ShowMessageFace("",0,0,2,1)
  ShowMessage("\\n<若い女性>血を吸われて……力が……")
  0()



EVENT   36
 PAGE   1
  ShowMessageFace("",0,0,2,1)
  ShowMessage("\\n<Soldier>怪物だ……")
  0()



EVENT   37
 PAGE   1
  ShowMessageFace("",0,0,2,1)
  ShowMessage("\\n<騎士>サラ様、申し訳ありません……")
  0()



EVENT   38
 PAGE   1
  ShowMessageFace("",0,0,2,1)
  ShowMessage("\\n<老人>誰か……サバサに救いの手を……")
  0()



EVENT   39
 PAGE   1
  ShowMessageFace("",0,0,2,1)
  ShowMessage("\\n<売り子>ああ……助けて、助けて……")
  If(4,531,0)
   ShowMessageFace("saniria_fc2",0,0,2,2)
   ShowMessage("\\n<King of San Ilia>そこで隠れていたまえ。")
   ShowMessage("外を逃げ惑う方が危険だろう……")
   0()
  EndIf()
  0()



EVENT   40
 PAGE   1
  ShowMessageFace("",0,0,2,1)
  ShowMessage("\\n<売り子>私の……店……")
  0()



EVENT   41
 PAGE   1
  ShowMessageFace("",0,0,2,1)
  ShowMessage("\\n<おばさん>あたしは大丈夫、ここで隠れてるから……")
  ShowMessage("他の人達を助けておくれ！")
  0()



EVENT   42
 PAGE   1
  ShowMessageFace("",0,0,2,1)
  ShowMessage("\\n<Soldier>う……うう……")
  0()



EVENT   43
 PAGE   1
  ShowMessageFace("",0,0,2,1)
  ShowMessage("\\n<騎士>戦列を維持せよ！　一歩も引くな！")
  ShowMessageFace("vampire_fc1",0,0,2,2)
  ShowMessage("\\n<ヴァンパイア>サバサ騎兵部隊、一筋縄ではいかないわね……")
  If(0,4,0)
   ShowMessageFace("alice_fc5",2,0,2,3)
   ShowMessage("\\n<Alice>大通りは通行できんな……迂回するぞ！")
   0()
  EndIf()
  If(0,5,0)
   ShowMessageFace("iriasu_fc4",7,0,2,4)
   ShowMessage("\\n<Ilias>大通りは通行できません……迂回しましょう！")
   0()
  EndIf()
  0()



EVENT   44
 PAGE   1
  ShowMessageFace("",0,0,2,1)
  ShowMessage("\\n<騎士>戦列を維持せよ！　一歩も引くな！")
  ShowMessageFace("vampire_fc1",0,0,2,2)
  ShowMessage("\\n<ヴァンパイア>サバサ騎兵部隊、一筋縄ではいかないわね……")
  If(0,4,0)
   ShowMessageFace("alice_fc5",2,0,2,3)
   ShowMessage("\\n<Alice>大通りは通行できんな……迂回するぞ！")
   0()
  EndIf()
  If(0,5,0)
   ShowMessageFace("iriasu_fc4",7,0,2,4)
   ShowMessage("\\n<Ilias>大通りは通行できません……迂回しましょう！")
   0()
  EndIf()
  0()



EVENT   45
 PAGE   1
  ShowMessageFace("",0,0,2,1)
  ShowMessage("\\n<騎士>こいつは、強すぎる……")
  0()



EVENT   46
 PAGE   1
  ShowMessageFace("",0,0,2,1)
  ShowMessage("\\n<Man>こんな……うぅぅ……")
  0()



EVENT   47
 PAGE   1
  ShowMessageFace("",0,0,2,1)
  ShowMessage("\\n<旅の商人>今、前を通っていった二体の吸血鬼……")
  ShowMessage("あんなバケモノ、見た事がない……")
  355("actor_label_jump")
  EndEventProcessing()
  DefineLabel("66")
  ShowMessageFace("vgirl_fc1",2,0,2,2)
  ShowMessage("\\n<Vanilla>女王様の腹心、カーミラ様とエリザベート様だな……")
  ShowMessage("ここで戦うなど、我は超怖いぞ。")
  EndEventProcessing()
  DefineLabel("302")
  ShowMessageFace("vampire_fc1",2,0,2,3)
  ShowMessage("\\n<ヴィルヘルミナ>女王様の右腕と左腕、カーミラ様とエリザベート様ね……")
  ShowMessage("ここで戦いたくはなかったわ。")
  EndEventProcessing()
  0()



EVENT   48
 PAGE   1
  ShowMessageFace("",0,0,2,1)
  ShowMessage("\\n<騎士>戦列を維持せよ！　一歩も引くな！")
  ShowMessageFace("vampire_fc1",0,0,2,2)
  ShowMessage("\\n<ヴァンパイア>サバサ騎兵部隊、一筋縄ではいかないわね……")
  If(0,4,0)
   ShowMessageFace("alice_fc5",2,0,2,3)
   ShowMessage("\\n<Alice>大通りは通行できんな……迂回するぞ！")
   0()
  EndIf()
  If(0,5,0)
   ShowMessageFace("iriasu_fc4",7,0,2,4)
   ShowMessage("\\n<Ilias>大通りは通行できません……迂回しましょう！")
   0()
  EndIf()
  0()



EVENT   49
 PAGE   1
  ShowMessageFace("",0,0,2,1)
  ShowMessage("\\n<騎士>ぐぐぐ……")
  0()



EVENT   50
 PAGE   1
  ShowMessageFace("",0,0,2,1)
  ShowMessage("\\n<屈強な男>ひぃぃぃ……！")
  ShowMessage("なんなんだ、あいつ……！？")
  0()



EVENT   51
 PAGE   1
  0()



EVENT   52
 PAGE   1
  ShowMessageFace("",0,0,2,1)
  ShowMessage("\\n<Young Girl>うわーん！")
  ShowMessageFace("",0,0,2,2)
  ShowMessage("\\n<Young Boy>たすけてー！")
  355("actor_label_jump")
  EndEventProcessing()
  DefineLabel("525")
  ShowMessageFace("sonia_fc1",4,0,2,3)
  ShowMessage("\\n<Sonya>大丈夫……")
  ShowMessage("お姉ちゃん達がやっつけるから、ここに隠れててね。")
  EndEventProcessing()
  0()



EVENT   53
 PAGE   1
  ShowMessageFace("",0,0,2,1)
  ShowMessage("\\n<Young Girl>うわーん！")
  ShowMessageFace("",0,0,2,2)
  ShowMessage("\\n<Young Boy>たすけてー！")
  355("actor_label_jump")
  EndEventProcessing()
  DefineLabel("525")
  ShowMessageFace("sonia_fc1",4,0,2,3)
  ShowMessage("\\n<Sonya>大丈夫……")
  ShowMessage("お姉ちゃん達がやっつけるから、ここに隠れててね。")
  EndEventProcessing()
  0()



EVENT   54
 PAGE   1
  0()



EVENT   55
 PAGE   1
  0()

EVENT   56
 PAGE   1
  241(bytes(0x04,0x08,0x6f,0x3a,0x0d,0x52,0x50,0x47,0x3a,0x3a,0x42,0x47,0x4d,0x08,0x3a,0x0a,0x40,0x6e,0x61,0x6d,0x65,0x49,0x22,0x0a,0x62,0x6f,0x73,0x73,0x30,0x06,0x3a,0x06,0x45,0x54,0x3a,0x0c,0x40,0x76,0x6f,0x6c,0x75,0x6d,0x65,0x69,0x69,0x3a,0x0b,0x40,0x70,0x69,0x74,0x63,0x68,0x69,0x69))
  ScrollMap(8,4,4)
  205(-1,bytes(0x04,0x08,0x6f,0x3a,0x13,0x52,0x50,0x47,0x3a,0x3a,0x4d,0x6f,0x76,0x65,0x52,0x6f,0x75,0x74,0x65,0x09,0x3a,0x0c,0x40,0x72,0x65,0x70,0x65,0x61,0x74,0x46,0x3a,0x0f,0x40,0x73,0x6b,0x69,0x70,0x70,0x61,0x62,0x6c,0x65,0x46,0x3a,0x0a,0x40,0x77,0x61,0x69,0x74,0x54,0x3a,0x0a,0x40,0x6c,0x69,0x73,0x74,0x5b,0x07,0x6f,0x3a,0x15,0x52,0x50,0x47,0x3a,0x3a,0x4d,0x6f,0x76,0x65,0x43,0x6f,0x6d,0x6d,0x61,0x6e,0x64,0x07,0x3a,0x0a,0x40,0x63,0x6f,0x64,0x65,0x69,0x18,0x3a,0x10,0x40,0x70,0x61,0x72,0x61,0x6d,0x65,0x74,0x65,0x72,0x73,0x5b,0x00,0x6f,0x3b,0x0a,0x07,0x3b,0x0b,0x69,0x00,0x3b,0x0c,0x5b,0x00))
  Wait(90)
  PictureDisplay(6,"80_sara_st03",0,0,-150,0,100,100,0,0)
  PictureDisplay(5,"80_elisabeth_st01",0,0,150,0,100,100,0,0)
  PictureMove(6,null,0,0,-150,0,100,100,255,0,30,false)
  PictureMove(5,null,0,0,150,0,100,100,255,0,30,true)
  ShowMessageFace("elisabeth_fc1",0,0,2,1)
  ShowMessage("\\n<エリザベート>くくく、女王の身柄を押さえたな！")
  ShowMessage("これでサバサは、吸血鬼が支配したも同然よ！")
  ShowMessageFace("sara_fc1",4,0,2,2)
  ShowMessage("\\n<Sara>吸血鬼が、この国を支配して……")
  ShowMessage("いったい何をするつもりなの？")
  ShowMessageFace("elisabeth_fc1",0,0,2,3)
  ShowMessage("\\n<エリザベート>知れたこと……この国の民全員を、吸血鬼の奴隷とする。")
  ShowMessage("我らが眷属に血液と精を捧げ、その生命をもって我らに奉仕するのだ。")
  ShowMessageFace("elisabeth_fc1",0,0,2,4)
  ShowMessage("\\n<エリザベート>女王たる貴様も、吸血鬼の慰み者よ！")
  ShowMessage("吸血の快楽で調教し、我が眷属達共用の奴隷としてくれよう！")
  ShowMessageFace("sara_fc1",4,0,2,5)
  ShowMessage("\\n<Sara>私達を奴隷にするですって……？")
  ShowMessageFace("elisabeth_fc1",0,0,2,6)
  ShowMessage("\\n<エリザベート>その通り、貴様も民も吸血鬼の奴隷よ！")
  ShowMessage("まずは貴様を公衆の面前で吸血し、惨めな姿を民に晒してくれよう！")
  PictureDisplay(6,"80_sara_st06",0,0,-150,0,100,100,255,0)
  ShowMessageFace("sara_fc1",5,0,2,7)
  ShowMessage("\\n<Sara>……吸血鬼など、魅凪様を祖とする淫魔から枝分かれした傍流の血族。")
  ShowMessage("血などに頼り、エネルギー収支で淫魔に劣る進化の袋小路……")
  ShowMessageFace("elisabeth_fc1",2,0,2,8)
  ShowMessage("\\n<エリザベート>なんだと……？")
  ShowMessageFace("sara_fc1",5,0,2,9)
  ShowMessage("\\n<Sara>そんな劣った者達が、私を奴隷に？")
  ShowMessage("スフィンクスを祖に持ち、リリスの手で覚醒に至ったこの私を……？")
  ShowMessageFace("elisabeth_fc1",2,0,2,10)
  ShowMessage("\\n<エリザベート>き、貴様……まさか――！？")
  PictureClear(5)
  PictureClear(6)
  Wait(60)
  241(bytes(0x04,0x08,0x6f,0x3a,0x0d,0x52,0x50,0x47,0x3a,0x3a,0x42,0x47,0x4d,0x08,0x3a,0x0a,0x40,0x6e,0x61,0x6d,0x65,0x49,0x22,0x0a,0x6b,0x69,0x6b,0x69,0x34,0x06,0x3a,0x06,0x45,0x54,0x3a,0x0c,0x40,0x76,0x6f,0x6c,0x75,0x6d,0x65,0x69,0x69,0x3a,0x0b,0x40,0x70,0x69,0x74,0x63,0x68,0x69,0x69))
  212(78,1170,false)
  Wait(60)
  ChangeSwitch(31,31,0)
  Wait(60)
  PictureDisplay(5,"80_saraevil_st01",0,0,0,0,100,100,0,0)
  PictureMove(5,null,0,0,0,0,100,100,255,0,30,true)
  ShowMessageFace("sara_fc4",0,0,2,11)
  ShowMessage("\\n<Sara>あはははっ……逆でしょう？")
  ShowMessage("あんた達が、私の奴隷になるのよぉ……！")
  PictureClear(5)
  Wait(60)
  212(95,522,false)
  Wait(60)
  205(113,bytes(0x04,0x08,0x6f,0x3a,0x13,0x52,0x50,0x47,0x3a,0x3a,0x4d,0x6f,0x76,0x65,0x52,0x6f,0x75,0x74,0x65,0x09,0x3a,0x0c,0x40,0x72,0x65,0x70,0x65,0x61,0x74,0x46,0x3a,0x0f,0x40,0x73,0x6b,0x69,0x70,0x70,0x61,0x62,0x6c,0x65,0x46,0x3a,0x0a,0x40,0x77,0x61,0x69,0x74,0x46,0x3a,0x0a,0x40,0x6c,0x69,0x73,0x74,0x5b,0x07,0x6f,0x3a,0x15,0x52,0x50,0x47,0x3a,0x3a,0x4d,0x6f,0x76,0x65,0x43,0x6f,0x6d,0x6d,0x61,0x6e,0x64,0x07,0x3a,0x0a,0x40,0x63,0x6f,0x64,0x65,0x69,0x13,0x3a,0x10,0x40,0x70,0x61,0x72,0x61,0x6d,0x65,0x74,0x65,0x72,0x73,0x5b,0x07,0x69,0x08,0x69,0xf9,0x6f,0x3b,0x0a,0x07,0x3b,0x0b,0x69,0x00,0x3b,0x0c,0x5b,0x00))
  205(93,bytes(0x04,0x08,0x6f,0x3a,0x13,0x52,0x50,0x47,0x3a,0x3a,0x4d,0x6f,0x76,0x65,0x52,0x6f,0x75,0x74,0x65,0x09,0x3a,0x0c,0x40,0x72,0x65,0x70,0x65,0x61,0x74,0x46,0x3a,0x0f,0x40,0x73,0x6b,0x69,0x70,0x70,0x61,0x62,0x6c,0x65,0x46,0x3a,0x0a,0x40,0x77,0x61,0x69,0x74,0x46,0x3a,0x0a,0x40,0x6c,0x69,0x73,0x74,0x5b,0x07,0x6f,0x3a,0x15,0x52,0x50,0x47,0x3a,0x3a,0x4d,0x6f,0x76,0x65,0x43,0x6f,0x6d,0x6d,0x61,0x6e,0x64,0x07,0x3a,0x0a,0x40,0x63,0x6f,0x64,0x65,0x69,0x13,0x3a,0x10,0x40,0x70,0x61,0x72,0x61,0x6d,0x65,0x74,0x65,0x72,0x73,0x5b,0x07,0x69,0x09,0x69,0xfa,0x6f,0x3b,0x0a,0x07,0x3b,0x0b,0x69,0x00,0x3b,0x0c,0x5b,0x00))
  205(96,bytes(0x04,0x08,0x6f,0x3a,0x13,0x52,0x50,0x47,0x3a,0x3a,0x4d,0x6f,0x76,0x65,0x52,0x6f,0x75,0x74,0x65,0x09,0x3a,0x0c,0x40,0x72,0x65,0x70,0x65,0x61,0x74,0x46,0x3a,0x0f,0x40,0x73,0x6b,0x69,0x70,0x70,0x61,0x62,0x6c,0x65,0x46,0x3a,0x0a,0x40,0x77,0x61,0x69,0x74,0x46,0x3a,0x0a,0x40,0x6c,0x69,0x73,0x74,0x5b,0x07,0x6f,0x3a,0x15,0x52,0x50,0x47,0x3a,0x3a,0x4d,0x6f,0x76,0x65,0x43,0x6f,0x6d,0x6d,0x61,0x6e,0x64,0x07,0x3a,0x0a,0x40,0x63,0x6f,0x64,0x65,0x69,0x13,0x3a,0x10,0x40,0x70,0x61,0x72,0x61,0x6d,0x65,0x74,0x65,0x72,0x73,0x5b,0x07,0x69,0xf8,0x69,0xf8,0x6f,0x3b,0x0a,0x07,0x3b,0x0b,0x69,0x00,0x3b,0x0c,0x5b,0x00))
  205(95,bytes(0x04,0x08,0x6f,0x3a,0x13,0x52,0x50,0x47,0x3a,0x3a,0x4d,0x6f,0x76,0x65,0x52,0x6f,0x75,0x74,0x65,0x09,0x3a,0x0c,0x40,0x72,0x65,0x70,0x65,0x61,0x74,0x46,0x3a,0x0f,0x40,0x73,0x6b,0x69,0x70,0x70,0x61,0x62,0x6c,0x65,0x46,0x3a,0x0a,0x40,0x77,0x61,0x69,0x74,0x46,0x3a,0x0a,0x40,0x6c,0x69,0x73,0x74,0x5b,0x07,0x6f,0x3a,0x15,0x52,0x50,0x47,0x3a,0x3a,0x4d,0x6f,0x76,0x65,0x43,0x6f,0x6d,0x6d,0x61,0x6e,0x64,0x07,0x3a,0x0a,0x40,0x63,0x6f,0x64,0x65,0x69,0x13,0x3a,0x10,0x40,0x70,0x61,0x72,0x61,0x6d,0x65,0x74,0x65,0x72,0x73,0x5b,0x07,0x69,0xf8,0x69,0xfa,0x6f,0x3b,0x0a,0x07,0x3b,0x0b,0x69,0x00,0x3b,0x0c,0x5b,0x00))
  205(97,bytes(0x04,0x08,0x6f,0x3a,0x13,0x52,0x50,0x47,0x3a,0x3a,0x4d,0x6f,0x76,0x65,0x52,0x6f,0x75,0x74,0x65,0x09,0x3a,0x0c,0x40,0x72,0x65,0x70,0x65,0x61,0x74,0x46,0x3a,0x0f,0x40,0x73,0x6b,0x69,0x70,0x70,0x61,0x62,0x6c,0x65,0x46,0x3a,0x0a,0x40,0x77,0x61,0x69,0x74,0x46,0x3a,0x0a,0x40,0x6c,0x69,0x73,0x74,0x5b,0x07,0x6f,0x3a,0x15,0x52,0x50,0x47,0x3a,0x3a,0x4d,0x6f,0x76,0x65,0x43,0x6f,0x6d,0x6d,0x61,0x6e,0x64,0x07,0x3a,0x0a,0x40,0x63,0x6f,0x64,0x65,0x69,0x13,0x3a,0x10,0x40,0x70,0x61,0x72,0x61,0x6d,0x65,0x74,0x65,0x72,0x73,0x5b,0x07,0x69,0xf9,0x69,0x07,0x6f,0x3b,0x0a,0x07,0x3b,0x0b,0x69,0x00,0x3b,0x0c,0x5b,0x00))
  205(94,bytes(0x04,0x08,0x6f,0x3a,0x13,0x52,0x50,0x47,0x3a,0x3a,0x4d,0x6f,0x76,0x65,0x52,0x6f,0x75,0x74,0x65,0x09,0x3a,0x0c,0x40,0x72,0x65,0x70,0x65,0x61,0x74,0x46,0x3a,0x0f,0x40,0x73,0x6b,0x69,0x70,0x70,0x61,0x62,0x6c,0x65,0x46,0x3a,0x0a,0x40,0x77,0x61,0x69,0x74,0x46,0x3a,0x0a,0x40,0x6c,0x69,0x73,0x74,0x5b,0x07,0x6f,0x3a,0x15,0x52,0x50,0x47,0x3a,0x3a,0x4d,0x6f,0x76,0x65,0x43,0x6f,0x6d,0x6d,0x61,0x6e,0x64,0x07,0x3a,0x0a,0x40,0x63,0x6f,0x64,0x65,0x69,0x13,0x3a,0x10,0x40,0x70,0x61,0x72,0x61,0x6d,0x65,0x74,0x65,0x72,0x73,0x5b,0x07,0x69,0x07,0x69,0x06,0x6f,0x3b,0x0a,0x07,0x3b,0x0b,0x69,0x00,0x3b,0x0c,0x5b,0x00))
  205(114,bytes(0x04,0x08,0x6f,0x3a,0x13,0x52,0x50,0x47,0x3a,0x3a,0x4d,0x6f,0x76,0x65,0x52,0x6f,0x75,0x74,0x65,0x09,0x3a,0x0c,0x40,0x72,0x65,0x70,0x65,0x61,0x74,0x46,0x3a,0x0f,0x40,0x73,0x6b,0x69,0x70,0x70,0x61,0x62,0x6c,0x65,0x46,0x3a,0x0a,0x40,0x77,0x61,0x69,0x74,0x54,0x3a,0x0a,0x40,0x6c,0x69,0x73,0x74,0x5b,0x07,0x6f,0x3a,0x15,0x52,0x50,0x47,0x3a,0x3a,0x4d,0x6f,0x76,0x65,0x43,0x6f,0x6d,0x6d,0x61,0x6e,0x64,0x07,0x3a,0x0a,0x40,0x63,0x6f,0x64,0x65,0x69,0x13,0x3a,0x10,0x40,0x70,0x61,0x72,0x61,0x6d,0x65,0x74,0x65,0x72,0x73,0x5b,0x07,0x69,0xf9,0x69,0x08,0x6f,0x3b,0x0a,0x07,0x3b,0x0b,0x69,0x00,0x3b,0x0c,0x5b,0x00))
  ChangeSwitch(32,32,0)
  ShowMessageFace("vampire_fc1",2,0,2,12)
  ShowMessage("\\n<ヴァンパイア>きゃぁぁぁぁ――！！")
  Wait(60)
  PictureDisplay(6,"80_saraevil_st01",0,0,-150,0,100,100,0,0)
  PictureDisplay(5,"80_elisabeth_st03",0,0,150,0,100,100,0,0)
  PictureMove(6,null,0,0,-150,0,100,100,255,0,30,false)
  PictureMove(5,null,0,0,150,0,100,100,255,0,30,true)
  ShowMessageFace("elisabeth_fc1",2,0,2,13)
  ShowMessage("\\n<エリザベート>そうか……王家の血脈、それにスフィンクスの血……")
  ShowMessage("さらに、リリスの強大な力の影響……")
  ShowMessageFace("elisabeth_fc1",2,0,2,14)
  ShowMessage("\\n<エリザベート>まさか、サバサにこんな怪物が根付いていたとはな……")
  PictureClear(5)
  PictureClear(6)
  ShowMessageFace("ruka_fc1",0,0,2,15)
  ShowMessage("\\n<Luka>サラ！！　大丈夫なのか！？")
  205(78,bytes(0x04,0x08,0x6f,0x3a,0x13,0x52,0x50,0x47,0x3a,0x3a,0x4d,0x6f,0x76,0x65,0x52,0x6f,0x75,0x74,0x65,0x09,0x3a,0x0c,0x40,0x72,0x65,0x70,0x65,0x61,0x74,0x46,0x3a,0x0f,0x40,0x73,0x6b,0x69,0x70,0x70,0x61,0x62,0x6c,0x65,0x46,0x3a,0x0a,0x40,0x77,0x61,0x69,0x74,0x54,0x3a,0x0a,0x40,0x6c,0x69,0x73,0x74,0x5b,0x08,0x6f,0x3a,0x15,0x52,0x50,0x47,0x3a,0x3a,0x4d,0x6f,0x76,0x65,0x43,0x6f,0x6d,0x6d,0x61,0x6e,0x64,0x07,0x3a,0x0a,0x40,0x63,0x6f,0x64,0x65,0x69,0x13,0x3a,0x10,0x40,0x70,0x61,0x72,0x61,0x6d,0x65,0x74,0x65,0x72,0x73,0x5b,0x07,0x69,0xf9,0x69,0x08,0x6f,0x3b,0x0a,0x07,0x3b,0x0b,0x69,0x15,0x3b,0x0c,0x5b,0x00,0x6f,0x3b,0x0a,0x07,0x3b,0x0b,0x69,0x00,0x3b,0x0c,0x5b,0x00))
  205(98,bytes(0x04,0x08,0x6f,0x3a,0x13,0x52,0x50,0x47,0x3a,0x3a,0x4d,0x6f,0x76,0x65,0x52,0x6f,0x75,0x74,0x65,0x09,0x3a,0x0c,0x40,0x72,0x65,0x70,0x65,0x61,0x74,0x46,0x3a,0x0f,0x40,0x73,0x6b,0x69,0x70,0x70,0x61,0x62,0x6c,0x65,0x46,0x3a,0x0a,0x40,0x77,0x61,0x69,0x74,0x54,0x3a,0x0a,0x40,0x6c,0x69,0x73,0x74,0x5b,0x07,0x6f,0x3a,0x15,0x52,0x50,0x47,0x3a,0x3a,0x4d,0x6f,0x76,0x65,0x43,0x6f,0x6d,0x6d,0x61,0x6e,0x64,0x07,0x3a,0x0a,0x40,0x63,0x6f,0x64,0x65,0x69,0x15,0x3a,0x10,0x40,0x70,0x61,0x72,0x61,0x6d,0x65,0x74,0x65,0x72,0x73,0x5b,0x00,0x6f,0x3b,0x0a,0x07,0x3b,0x0b,0x69,0x00,0x3b,0x0c,0x5b,0x00))
  Wait(60)
  PictureDisplay(5,"80_saraevil_st01",0,0,0,0,100,100,0,0)
  PictureMove(5,null,0,0,0,0,100,100,255,0,30,true)
  ShowMessageFace("sara_fc4",0,0,2,16)
  ShowMessage("\\n<Sara>うふふっ、ちゃぁんと理性は保っているわ……")
  ShowMessage("それに、とってもイイ気持ちよ……♪")
  If(0,6,0)
   ShowMessageFace("sonia_fc2",2,0,2,17)
   ShowMessage("\\n<Sonya>本当に、ちゃんと理性を保ってるの……？")
   0()
  Else()
   ShowMessageFace("ruka_fc1",0,0,2,18)
   ShowMessage("\\n<Luka>本当に、ちゃんと理性を保ってるのか……？")
   0()
  EndIf()
  If(4,284,0)
   ShowMessageFace("minccubus_fc1",3,0,2,19)
   ShowMessage("\\n<セーラ>こういうの、経験あるかも……")
   0()
  EndIf()
  If(0,4,0)
   ShowMessageFace("alice_fc5",2,0,2,20)
   ShowMessage("\\n<Alice>ともかくサラよ、一緒に戦うぞ！")
   ShowMessage("エリザベートを倒せば、吸血鬼の軍隊も瓦解する！")
   0()
  EndIf()
  If(0,5,0)
   ShowMessageFace("iriasu_fc4",7,0,2,21)
   ShowMessage("\\n<Ilias>ともかくサラ……その力を私のために使うのです。")
   ShowMessage("エリザベートを倒せば、吸血鬼の軍も一挙に崩れるはず！")
   0()
  EndIf()
  ChangeSwitch(33,33,0)
  PictureClear(5)
  ChangeSwitch(1913,1913,0)
  355("add_actor_ex(530)")
  If(12,"actor_class_level_over?(529, 177, 1)")
   0()
  Else()
   355("gain_actor_exp(529, :base, 760000, false, false)")
   355("set_class_level(529, 158, 10, false, false)")
   655("set_class_level(529, 159, 10, false, false)")
   655("set_class_level(529, 160, 1, false, false)")
   655("set_class_level(529, 175, 10, false, false)")
   655("set_class_level(529, 176, 10, false, false)")
   655("set_class_level(529, 177, 1, false, true)")
   314(0,530)
   0()
  EndIf()
  249(bytes(0x04,0x08,0x6f,0x3a,0x0c,0x52,0x50,0x47,0x3a,0x3a,0x4d,0x45,0x08,0x3a,0x0a,0x40,0x6e,0x61,0x6d,0x65,0x49,0x22,0x0c,0x66,0x61,0x6e,0x66,0x61,0x6c,0x65,0x06,0x3a,0x06,0x45,0x54,0x3a,0x0b,0x40,0x70,0x69,0x74,0x63,0x68,0x69,0x69,0x3a,0x0c,0x40,0x76,0x6f,0x6c,0x75,0x6d,0x65,0x69,0x69))
  ShowMessageFace("",0,0,2,22)
  ShowMessage("サラが再び仲間に加わった！")
  Wait(60)
  PictureDisplay(5,"80_elisabeth_st03",0,0,0,0,100,100,0,0)
  PictureMove(5,null,0,0,0,0,100,100,255,0,30,true)
  ShowMessageFace("sara_fc4",0,0,2,23)
  ShowMessage("\\n<Sara>さあ……あの吸血鬼に、たっぷりとお礼をしてやらなくちゃね。")
  ShowMessage("あなたは、この国の民達の嫐り者にしてあげる……")
  PictureDisplay(5,"80_elisabeth_st02",0,0,0,0,100,100,255,0)
  ShowMessageFace("elisabeth_fc1",1,0,2,24)
  ShowMessage("\\n<エリザベート>ふん！　我とて、クィーンヴァンパイア直属の上級妖魔！")
  ShowMessage("貴様等などに、遅れなど取らんわ！")
  ShowMessageFace("ruka_fc1",0,0,2,25)
  ShowMessage("\\n<Luka>これ以上、この国を荒らさせはしない……行くぞっ！")
  If(4,185,0)
   ShowMessageFace("radio_fc1",0,0,2,26)
   ShowMessage("\\n<Radio>夜のバけもノ……夜に還レ……")
   0()
  EndIf()
  PictureClear(5)
  PictureClear(6)
  SetBattleBGM(bytes(0x04,0x08,0x6f,0x3a,0x0d,0x52,0x50,0x47,0x3a,0x3a,0x42,0x47,0x4d,0x08,0x3a,0x0a,0x40,0x6e,0x61,0x6d,0x65,0x49,0x22,0x0a,0x62,0x6f,0x73,0x73,0x31,0x06,0x3a,0x06,0x45,0x54,0x3a,0x0c,0x40,0x76,0x6f,0x6c,0x75,0x6d,0x65,0x69,0x69,0x3a,0x0b,0x40,0x70,0x69,0x74,0x63,0x68,0x69,0x69))
  ChangeSwitch(22,22,0)
  Battle(0,813,false,false)
  ChangeSwitch(22,22,1)
  SetBattleBGM(bytes(0x04,0x08,0x6f,0x3a,0x0d,0x52,0x50,0x47,0x3a,0x3a,0x42,0x47,0x4d,0x08,0x3a,0x0a,0x40,0x6e,0x61,0x6d,0x65,0x49,0x22,0x0b,0x62,0x61,0x74,0x74,0x6c,0x65,0x06,0x3a,0x06,0x45,0x54,0x3a,0x0c,0x40,0x76,0x6f,0x6c,0x75,0x6d,0x65,0x69,0x69,0x3a,0x0b,0x40,0x70,0x69,0x74,0x63,0x68,0x69,0x69))
  241(bytes(0x04,0x08,0x6f,0x3a,0x0d,0x52,0x50,0x47,0x3a,0x3a,0x42,0x47,0x4d,0x08,0x3a,0x0a,0x40,0x6e,0x61,0x6d,0x65,0x49,0x22,0x14,0x73,0x63,0x65,0x6e,0x65,0x5f,0x65,0x70,0x69,0x6c,0x6f,0x67,0x75,0x65,0x32,0x06,0x3a,0x06,0x45,0x54,0x3a,0x0c,0x40,0x76,0x6f,0x6c,0x75,0x6d,0x65,0x69,0x69,0x3a,0x0b,0x40,0x70,0x69,0x74,0x63,0x68,0x69,0x69))
  PictureDisplay(5,"80_elisabeth_st03",0,0,0,0,100,100,0,0)
  PictureMove(5,null,0,0,0,0,100,100,255,0,30,true)
  ShowMessageFace("sara_fc4",1,0,2,27)
  ShowMessage("\\n<Sara>あははっ、不甲斐ないわねぇ……")
  ShowMessageFace("elisabeth_fc1",2,0,2,28)
  ShowMessage("\\n<エリザベート>おのれ……")
  ShowMessage("不本意だが、侵攻作戦はここで中止だ……")
  PictureDisplay(5,"80_elisabeth_st01",0,0,0,0,100,100,255,0)
  ShowMessageFace("elisabeth_fc1",0,0,2,29)
  ShowMessage("\\n<エリザベート>だがこれは、戦術的撤退に過ぎん！")
  ShowMessage("吸血鬼の魔城では、さらに多くの吸血鬼が控えているのだ！")
  ShowMessageFace("elisabeth_fc1",0,0,2,30)
  ShowMessage("\\n<エリザベート>そう何度も、我らを追い返せると思うな！")
  ShowMessage("結局最後は、この地は我々のものとなるのだ！")
  ShowMessageFace("elisabeth_fc1",0,0,2,31)
  ShowMessage("\\n<エリザベート>ふははははは……さらばだ！")
  PictureClear(5)
  Wait(60)
  250(bytes(0x04,0x08,0x6f,0x3a,0x0c,0x52,0x50,0x47,0x3a,0x3a,0x53,0x45,0x08,0x3a,0x0a,0x40,0x6e,0x61,0x6d,0x65,0x49,0x22,0x0d,0x6d,0x6f,0x6e,0x5f,0x77,0x61,0x72,0x70,0x06,0x3a,0x06,0x45,0x54,0x3a,0x0b,0x40,0x70,0x69,0x74,0x63,0x68,0x69,0x69,0x3a,0x0c,0x40,0x76,0x6f,0x6c,0x75,0x6d,0x65,0x69,0x55))
  ChangeSwitch(34,34,0)
  If(0,4,0)
   ShowMessageFace("alice_fc5",0,0,2,32)
   ShowMessage("\\n<Alice>負け惜しみ、と言いたいところだが……")
   ShowMessage("クィーンヴァンパイアは、まだまだ相当の戦力を抱えているぞ。")
   ShowMessageFace("alice_fc5",0,0,2,33)
   ShowMessage("\\n<Alice>吸血鬼の魔城に乗り込み、女王を討たねば終わるまい。")
   ShowMessage("だが、一時のものとはいえ勝利は勝利だ。")
   0()
  EndIf()
  If(0,5,0)
   ShowMessageFace("iriasu_fc4",2,0,2,34)
   ShowMessage("\\n<Ilias>負け惜しみと言いたいところですが……")
   ShowMessage("クィーンヴァンパイアは、相当の戦力を抱えているのは事実です。")
   ShowMessageFace("iriasu_fc4",0,0,2,35)
   ShowMessage("\\n<Ilias>吸血鬼の魔城に乗り込み、女王を滅ぼしてこその完全勝利です。")
   ShowMessage("とはいえ、吸血鬼の群れを一時的には押し返せましたね。")
   0()
  EndIf()
  If(4,45,0)
   ShowMessageFace("alicetromeria_fc1",4,0,2,36)
   ShowMessage("\\n<Alicetroemeria>蝙蝠のパーティも、ここでお開きですね。")
   ShowMessage("まだメインディッシュも頂いておりませんのに……")
   0()
  EndIf()
  PictureDisplay(5,"80_saraevil_st01",0,0,0,0,100,100,0,0)
  PictureMove(5,null,0,0,0,0,100,100,255,0,30,true)
  ShowMessageFace("sara_fc4",0,0,2,37)
  ShowMessage("\\n<Sara>うふふっ……今まで通り、私はあなた達の仲間よ。")
  ShowMessage("たっぷりと楽しませてね……♪")
  If(0,6,0)
   ShowMessageFace("sonia_fc2",2,0,2,38)
   ShowMessage("\\n<Sonya>これでいいの……？")
   0()
  Else()
   ShowMessageFace("ruka_fc1",0,0,2,39)
   ShowMessage("\\n<Luka>これでいいのかな……")
   0()
  EndIf()
  If(0,4,0)
   ShowMessageFace("alice_fc5",1,0,2,40)
   ShowMessage("\\n<Alice>サラのおかげで、逆転できたのだ。")
   ShowMessage("まあ、良かったではないか。")
   0()
  EndIf()
  If(0,5,0)
   ShowMessageFace("iriasu_fc4",0,0,2,41)
   ShowMessage("\\n<Ilias>以前の私なら、文句も言っていたでしょうが……")
   ShowMessage("まあ、結果オーライで良いではありませんか。")
   0()
  EndIf()
  PictureClear(5)
  ChangeSwitch(2163,2163,0)
  314(0,0)
  RunCommonEvent(328)
  If(0,2273,0)
   EndEventProcessing()
   0()
  EndIf()
  ShowMessageFace("ruka_fc1",0,0,2,42)
  ShowMessage("\\n<Luka>話もまとまったところで、次に行こう！")
  ShowMessage("他の国が、まだ攻撃を受けているんだ！")
  221()
  ChangeSwitch(31,31,1)
  ChangeSwitch(32,32,1)
  ChangeSwitch(33,33,1)
  ChangeSwitch(34,34,1)
  ShowMessageFace("",0,0,2,43)
  ShowMessage("こうして僕達は、吸血鬼の軍団を撃退した。")
  ShowMessage("しかし体を休める暇もなく、サバサを後にしなければならない。")
  ShowMessageFace("",0,0,2,44)
  ShowMessage("四大国を襲う、魔王軍の大攻勢――")
  ShowMessage("全力を尽くし、なんとしても防がなければ。")
  Wait(60)
  TeleportPlayer(0,2,103,294,2,0)
  222()
  EndEventProcessing()
  0()



EVENT   57
 PAGE   1
  ShowMessageFace("",0,0,2,1)
  ShowMessage("\\n<Youth>血も精も……吸われてしまった……")
  0()



EVENT   60
 PAGE   1
  ShowMessageFace("",0,0,2,1)
  ShowMessage("\\n<Soldier>う……ぐ……")
  0()



EVENT   61
 PAGE   1
  ShowMessageFace("",0,0,2,1)
  ShowMessage("\\n<Youth>負傷者をここに運んで、応急処置をしてるんだ。")
  ShowMessage("あんた達も、この薬を使ってくれ！")
  250(bytes(0x04,0x08,0x6f,0x3a,0x0c,0x52,0x50,0x47,0x3a,0x3a,0x53,0x45,0x08,0x3a,0x0a,0x40,0x6e,0x61,0x6d,0x65,0x49,0x22,0x0a,0x48,0x65,0x61,0x6c,0x37,0x06,0x3a,0x06,0x45,0x54,0x3a,0x0b,0x40,0x70,0x69,0x74,0x63,0x68,0x69,0x69,0x3a,0x0c,0x40,0x76,0x6f,0x6c,0x75,0x6d,0x65,0x69,0x55))
  224(bytes(0x04,0x08,0x75,0x3a,0x0a,0x43,0x6f,0x6c,0x6f,0x72,0x25,0x00,0x00,0x00,0x00,0x00,0xe0,0x6f,0x40,0x00,0x00,0x00,0x00,0x00,0xe0,0x6f,0x40,0x00,0x00,0x00,0x00,0x00,0xe0,0x6f,0x40,0x00,0x00,0x00,0x00,0x00,0xe0,0x6f,0x40),30,true)
  314(0,0)
  ShowMessageFace("",0,0,2,2)
  ShowMessage("The party's HP and MP have been fully restored!")
  0()



EVENT   64
 PAGE   1
  RunCommonEvent(356)
  0()
 PAGE   2
  // condition: switch 2233 is ON
  0()



EVENT   67
 PAGE   1
  ShowMessageFace("",0,0,2,1)
  ShowMessage("\\n<親衛隊長>サラ女王……サバサ先王陛下……申し訳ありません……")
  0()



EVENT   69
 PAGE   1
  If(0,2236,1)
   ShowMessageFace("conquista_fc1",0,0,2,1)
   ShowMessage("\\n<コンキスタ>その程度の力で、国を守るなど笑わせるな！")
   ShowMessageFace("",0,0,2,2)
   ShowMessage("\\n<Soldier>ぐっ……きゅ、救援を……！")
   0()
  EndIf()
  If(0,2236,0)
   ShowMessageFace("",0,0,2,3)
   ShowMessage("\\n<Soldier>自分の力不足を思い知りました……")
   ShowMessage("傷も深く、しばらくは動けません……")
   0()
  EndIf()
  0()



EVENT   72
 PAGE   1
  // condition: switch 31 is ON
  0()



EVENT   75
 PAGE   1
  RunCommonEvent(356)
  0()
 PAGE   2
  // condition: switch 2233 is ON
  0()



EVENT   78
 PAGE   1
  0()
 PAGE   2
  // condition: switch 31 is ON
  0()
 PAGE   3
  // condition: switch 33 is ON
  0()



EVENT   83
 PAGE   1
  ShowMessageFace("dog_fc1",4,0,2,1)
  ShowMessage("\\n<Dog Girl>Woof, woof!　こわいよー！")
  If(4,60,0)
   ShowMessageFace("dog_fc1",1,0,2,2)
   ShowMessage("\\n<Pochi>大丈夫、あたし達がやっつけるから！")
   ShowMessageFace("dog_fc1",4,0,2,3)
   ShowMessage("\\n<Dog Girl>くーん、くーん……")
   0()
  EndIf()
  0()



EVENT   85
 PAGE   1
  0()



EVENT   87
 PAGE   1
  // condition: switch 31 is ON
  0()



EVENT   90
 PAGE   1
  ShowMessageFace("e_vampire_fc1",0,0,2,1)
  ShowMessage("\\n<エルダーヴァンパイア>次は貴様等か……")
  ShowMessage("さあ、我が餌食となれ……")
  If(4,522,0)
   ShowMessageFace("merlin_fc1",0,0,2,2)
   ShowMessage("\\n<Merlin>古種ですね……")
   ShowMessage("気合いを入れてかかりましょうか。")
   0()
  EndIf()
  Battle(0,811,false,false)
  TemporaryRemoveEvent()
  0()



EVENT   91
 PAGE   1
  ShowMessageFace("",0,0,2,1)
  ShowMessage("\\n<吟遊詩人>この国の終焉を……歌いたくはありません……")
  0()



EVENT   92
 PAGE   1
  ShowMessageFace("",0,0,2,1)
  ShowMessage("\\n<Soldier>吸血鬼の力、凄まじい……")
  0()



EVENT   93
 PAGE   1
  ShowMessageFace("conquista_fc1",0,0,2,1)
  ShowMessage("\\n<コンキスタ>……")
  0()
 PAGE   2
  // condition: switch 32 is ON
  0()



EVENT   94
 PAGE   1
  ShowMessageFace("vendetta_fc1",0,0,2,1)
  ShowMessage("\\n<ヴェンデッタ>……")
  0()
 PAGE   2
  // condition: switch 32 is ON
  0()



EVENT   95
 PAGE   1
  ShowMessageFace("vampire_fc1",0,0,2,1)
  ShowMessage("\\n<ヴァンパイア>……")
  0()
 PAGE   2
  // condition: switch 32 is ON
  0()



EVENT   96
 PAGE   1
  ShowMessageFace("vampire_fc1",0,0,2,1)
  ShowMessage("\\n<ヴァンパイア>……")
  0()
 PAGE   2
  // condition: switch 32 is ON
  0()



EVENT   97
 PAGE   1
  ShowMessageFace("vampire_fc1",0,0,2,1)
  ShowMessage("\\n<ヴァンパイア>……")
  0()
 PAGE   2
  // condition: switch 32 is ON
  0()



EVENT   98
 PAGE   1
  0()
 PAGE   2
  // condition: switch 34 is ON
  0()



EVENT   99
 PAGE   1
  0()



EVENT   100
 PAGE   1
  ShowMessageFace("",0,0,2,1)
  ShowMessage("\\n<騎士>ここは通さん！")
  0()
 PAGE   2
  // condition: switch 2232 is ON
  0()



EVENT   101
 PAGE   1
  0()
 PAGE   2
  // condition: switch 2232 is ON
  0()



EVENT   102
 PAGE   1
  ShowMessageFace("",0,0,2,1)
  ShowMessage("\\n<Soldier>くっ、行くぞ……！")
  0()
 PAGE   2
  // condition: switch 2232 is ON
  0()



EVENT   103
 PAGE   1
  ShowMessageFace("",0,0,2,1)
  ShowMessage("\\n<Soldier>なんて力なんだ……")
  0()
 PAGE   2
  // condition: switch 2232 is ON
  0()



EVENT   104
 PAGE   1
  ShowMessageFace("",0,0,2,1)
  ShowMessage("\\n<Soldier>仲間達が、あっという間に……")
  0()
 PAGE   2
  // condition: switch 2232 is ON
  0()



EVENT   105
 PAGE   1
  0()
 PAGE   2
  // condition: switch 2232 is ON
  0()



EVENT   106
 PAGE   1
  // condition: switch 2232 is ON
  ShowMessageFace("",0,0,2,1)
  ShowMessage("\\n<Soldier>う……ぐぅ……")
  0()



EVENT   107
 PAGE   1
  // condition: switch 2232 is ON
  ShowMessageFace("",0,0,2,1)
  ShowMessage("\\n<騎士>体が……痺れて……")
  0()



EVENT   108
 PAGE   1
  // condition: switch 2232 is ON
  ShowMessageFace("",0,0,2,1)
  ShowMessage("\\n<Soldier>なんて力だ……")
  0()



EVENT   109
 PAGE   1
  // condition: switch 2232 is ON
  ShowMessageFace("",0,0,2,1)
  ShowMessage("\\n<Soldier>ぐ……うう……")
  0()



EVENT   111
 PAGE   1
  ShowMessageFace("",0,0,2,1)
  ShowMessage("\\n<親衛隊>サラ様の身を……お守りできないとは……")
  0()



EVENT   112
 PAGE   1
  ShowMessageFace("",0,0,2,1)
  ShowMessage("\\n<親衛隊>親衛隊が……たやすく破られるとは……")
  0()



EVENT   113
 PAGE   1
  ShowMessageFace("vampire_fc1",0,0,2,1)
  ShowMessage("\\n<ヴァンパイア>……")
  0()
 PAGE   2
  // condition: switch 32 is ON
  0()



EVENT   114
 PAGE   1
  ShowMessageFace("vampire_fc1",0,0,2,1)
  ShowMessage("\\n<ヴァンパイア>……")
  0()
 PAGE   2
  // condition: switch 32 is ON
  0()



EVENT   115
 PAGE   1
  ShowMessageFace("",2,0,2,1)
  ShowMessage("\\n<騎士>我が剣で、祖国を守る！")
  ShowMessageFace("vampire_fc1",1,0,2,2)
  ShowMessage("\\n<ヴァンパイア>骨のある人間ね……その血を啜りたいわ……")
  0()



EVENT   116
 PAGE   1
  ShowMessageFace("",2,0,2,1)
  ShowMessage("\\n<騎士>我が剣で、祖国を守る！")
  ShowMessageFace("vampire_fc1",1,0,2,2)
  ShowMessage("\\n<ヴァンパイア>骨のある人間ね……その血を啜りたいわ……")
  0()



EVENT   117
 PAGE   1
  ShowMessageFace("vampire_fc1",0,0,2,1)
  ShowMessage("\\n<ヴァンパイア>その血、最後の一滴まで吸い尽くしてあげる……")
  ShowMessageFace("",0,0,2,2)
  ShowMessage("\\n<Youth>やめて……あ、あぁぁぁぁ――！！")
  ShowMessageFace("ruka_fc1",0,0,2,3)
  ShowMessage("\\n<Luka>やめろっ！")
  If(4,204,0)
   ShowMessageFace("umiusi_k_fc1",0,0,2,4)
   ShowMessage("\\n<Stacy>民を虐げること、海軍が許しません！")
   0()
  EndIf()
  Battle(0,760,false,false)
  ChangeSwitch(2234,2234,0)
  ShowMessageFace("",0,0,2,5)
  ShowMessage("\\n<Youth>気持ち良かったけど、死ぬとこだった……")
  ShowMessage("お礼にこれを受け取ってくれよ。")
  250(bytes(0x04,0x08,0x6f,0x3a,0x0c,0x52,0x50,0x47,0x3a,0x3a,0x53,0x45,0x08,0x3a,0x0a,0x40,0x6e,0x61,0x6d,0x65,0x49,0x22,0x0a,0x49,0x74,0x65,0x6d,0x31,0x06,0x3a,0x06,0x45,0x54,0x3a,0x0b,0x40,0x70,0x69,0x74,0x63,0x68,0x69,0x69,0x3a,0x0c,0x40,0x76,0x6f,0x6c,0x75,0x6d,0x65,0x69,0x55))
  ChangeInventory_Item(30,0,0,1)
  EndEventProcessing()
  0()
 PAGE   2
  // condition: switch 2234 is ON
  0()



EVENT   118
 PAGE   1
  ShowMessageFace("",2,0,2,1)
  ShowMessage("\\n<騎士>サバサ軍を甘く見るな！　うぉぉぉっ！！")
  ShowMessageFace("conquista_fc1",0,0,2,2)
  ShowMessage("\\n<コンキスタ>なかなかの腕よ、面白い……！")
  0()



EVENT   119
 PAGE   1
  ShowMessageFace("",2,0,2,1)
  ShowMessage("\\n<騎士>サバサ軍を甘く見るな！　うぉぉぉっ！！")
  ShowMessageFace("conquista_fc1",0,0,2,2)
  ShowMessage("\\n<コンキスタ>なかなかの腕よ、面白い……！")
  0()



EVENT   120
 PAGE   1
  If(0,2235,1)
   ShowMessageFace("vendetta_fc1",0,0,2,1)
   ShowMessage("\\n<ヴェンデッタ>一家三人の血、まとめて啜れるとは……")
   ShowMessage("ふふっ、お腹がいっぱいになってしまいますね……")
   ShowMessageFace("",0,0,2,2)
   ShowMessage("\\n<男性>家族に手は出させないぞ！　このぉっ！")
   ShowMessageFace("",0,0,2,3)
   ShowMessage("\\n<女性>あ、あんた……")
   ShowMessageFace("",0,0,2,4)
   ShowMessage("\\n<Young Girl>だ、だれか助けてー！！")
   0()
  EndIf()
  If(0,2235,0)
   ShowMessageFace("",0,0,2,5)
   ShowMessage("\\n<男性>ありがとう、君は命の恩人だ！")
   ShowMessageFace("",0,0,2,6)
   ShowMessage("\\n<女性>ああ……救い主様だよ……")
   ShowMessageFace("",0,0,2,7)
   ShowMessage("\\n<Young Girl>お兄ちゃん、かっこいい！")
   ShowMessage("英雄ハインリヒみたい！")
   0()
  EndIf()
  0()



EVENT   121
 PAGE   1
  If(0,2235,1)
   ShowMessageFace("vendetta_fc1",0,0,2,1)
   ShowMessage("\\n<ヴェンデッタ>一家三人の血、まとめて啜れるとは……")
   ShowMessage("ふふっ、お腹がいっぱいになってしまいますね……")
   ShowMessageFace("",0,0,2,2)
   ShowMessage("\\n<男性>家族に手は出させないぞ！　このぉっ！")
   ShowMessageFace("",0,0,2,3)
   ShowMessage("\\n<女性>あ、あんた……")
   ShowMessageFace("",0,0,2,4)
   ShowMessage("\\n<Young Girl>だ、だれか助けてー！！")
   0()
  EndIf()
  If(0,2235,0)
   ShowMessageFace("",0,0,2,5)
   ShowMessage("\\n<男性>ありがとう、君は命の恩人だ！")
   ShowMessageFace("",0,0,2,6)
   ShowMessage("\\n<女性>ああ……救い主様だよ……")
   ShowMessageFace("",0,0,2,7)
   ShowMessage("\\n<Young Girl>お兄ちゃん、かっこいい！")
   ShowMessage("英雄ハインリヒみたい！")
   0()
  EndIf()
  0()



EVENT   122
 PAGE   1
  ShowMessageFace("",0,0,2,1)
  ShowMessage("\\n<Thug>こ、来ないでくれ！　吸血鬼に見つかるだろ！")
  0()



EVENT   123
 PAGE   1
  ShowMessageFace("vendetta_fc1",0,0,2,1)
  ShowMessage("\\n<ヴェンデッタ>一家三人の血、まとめて啜れるとは……")
  ShowMessage("ふふっ、お腹がいっぱいになってしまいますね……")
  ShowMessageFace("",0,0,2,2)
  ShowMessage("\\n<男性>家族に手は出させないぞ！　このぉっ！")
  ShowMessageFace("",0,0,2,3)
  ShowMessage("\\n<女性>あ、あんた……")
  ShowMessageFace("",0,0,2,4)
  ShowMessage("\\n<Young Girl>だ、だれか助けてー！！")
  ShowMessageFace("ruka_fc1",0,0,2,5)
  ShowMessage("\\n<Luka>やめろっ！　僕が相手だ！")
  If(4,288,0)
   ShowMessageFace("d_succubus_fc1",0,0,2,6)
   ShowMessage("\\n<ナターシャ>この私の前で、無辜な家族を引き裂こうと……？")
   ShowMessage("報いを受けてもらいましょうか……")
   0()
  EndIf()
  Battle(0,809,false,false)
  ChangeSwitch(2235,2235,0)
  ShowMessageFace("",0,0,2,7)
  ShowMessage("\\n<男性>ありがとう、君は命の恩人だ！")
  ShowMessageFace("",0,0,2,8)
  ShowMessage("\\n<女性>ああ……救い主様だよ……")
  ShowMessageFace("",0,0,2,9)
  ShowMessage("\\n<Young Girl>お兄ちゃん、かっこいい！")
  ShowMessage("英雄ハインリヒみたい！")
  250(bytes(0x04,0x08,0x6f,0x3a,0x0c,0x52,0x50,0x47,0x3a,0x3a,0x53,0x45,0x08,0x3a,0x0a,0x40,0x6e,0x61,0x6d,0x65,0x49,0x22,0x0a,0x49,0x74,0x65,0x6d,0x31,0x06,0x3a,0x06,0x45,0x54,0x3a,0x0b,0x40,0x70,0x69,0x74,0x63,0x68,0x69,0x69,0x3a,0x0c,0x40,0x76,0x6f,0x6c,0x75,0x6d,0x65,0x69,0x55))
  ChangeInventory_Item(8,0,0,1)
  EndEventProcessing()
  0()
 PAGE   2
  // condition: switch 2235 is ON
  0()



EVENT   124
 PAGE   1
  ShowMessageFace("",0,0,2,1)
  ShowMessage("\\n<Soldier>市民を……守らなければいけないのに……")
  0()



EVENT   125
 PAGE   1
  ShowMessageFace("vampire_fc1",0,0,2,1)
  ShowMessage("\\n<ヴァンパイア>その血、味わわせてもらうわ……")
  If(4,239,0)
   ShowMessageFace("rafi_fc1",0,0,2,2)
   ShowMessage("\\n<ラフィ>その肉、味わわせてもらいましょう……")
   0()
  EndIf()
  Battle(0,892,false,false)
  TemporaryRemoveEvent()
  0()



EVENT   126
 PAGE   1
  ShowMessageFace("conquista_fc1",0,0,2,1)
  ShowMessage("\\n<コンキスタ>その程度の力で、国を守るなど笑わせるな！")
  ShowMessageFace("",0,0,2,2)
  ShowMessage("\\n<Soldier>ぐっ……きゅ、救援を……！")
  ShowMessageFace("ruka_fc1",0,0,2,3)
  ShowMessage("\\n<Luka>僕が相手だ！")
  If(4,298,0)
   ShowMessageFace("dragon_fc1",0,0,2,4)
   ShowMessage("\\n<グランテ>か弱き人間をいたぶり、得意顔とは笑わせる！")
   0()
  EndIf()
  Battle(0,808,false,false)
  ChangeSwitch(2236,2236,0)
  ShowMessageFace("",0,0,2,5)
  ShowMessage("\\n<Soldier>た、助かりました……")
  ShowMessage("力不足の自分を恥じます……")
  250(bytes(0x04,0x08,0x6f,0x3a,0x0c,0x52,0x50,0x47,0x3a,0x3a,0x53,0x45,0x08,0x3a,0x0a,0x40,0x6e,0x61,0x6d,0x65,0x49,0x22,0x0a,0x49,0x74,0x65,0x6d,0x31,0x06,0x3a,0x06,0x45,0x54,0x3a,0x0b,0x40,0x70,0x69,0x74,0x63,0x68,0x69,0x69,0x3a,0x0c,0x40,0x76,0x6f,0x6c,0x75,0x6d,0x65,0x69,0x55))
  ChangeInventory_Item(24,0,0,1)
  EndEventProcessing()
  0()
 PAGE   2
  // condition: switch 2236 is ON
  0()



EVENT   127
 PAGE   1
  ShowMessageFace("",0,0,2,1)
  ShowMessage("\\n<騎士>戦列を維持せよ！　一歩も引くな！")
  ShowMessageFace("vampire_fc1",0,0,2,2)
  ShowMessage("\\n<ヴァンパイア>サバサ騎兵部隊、一筋縄ではいかないわね……")
  If(0,4,0)
   ShowMessageFace("alice_fc5",2,0,2,3)
   ShowMessage("\\n<Alice>大通りは通行できんな……迂回するぞ！")
   0()
  EndIf()
  If(0,5,0)
   ShowMessageFace("iriasu_fc4",7,0,2,4)
   ShowMessage("\\n<Ilias>大通りは通行できません……迂回しましょう！")
   0()
  EndIf()
  0()



EVENT   128
 PAGE   1
  ShowMessageFace("",0,0,2,1)
  ShowMessage("\\n<騎士>戦列を維持せよ！　一歩も引くな！")
  ShowMessageFace("vampire_fc1",0,0,2,2)
  ShowMessage("\\n<ヴァンパイア>サバサ騎兵部隊、一筋縄ではいかないわね……")
  If(0,4,0)
   ShowMessageFace("alice_fc5",2,0,2,3)
   ShowMessage("\\n<Alice>大通りは通行できんな……迂回するぞ！")
   0()
  EndIf()
  If(0,5,0)
   ShowMessageFace("iriasu_fc4",7,0,2,4)
   ShowMessage("\\n<Ilias>大通りは通行できません……迂回しましょう！")
   0()
  EndIf()
  0()



EVENT   129
 PAGE   1
  ShowMessageFace("",0,0,2,1)
  ShowMessage("\\n<騎士>戦列を維持せよ！　一歩も引くな！")
  ShowMessageFace("vampire_fc1",0,0,2,2)
  ShowMessage("\\n<ヴァンパイア>サバサ騎兵部隊、一筋縄ではいかないわね……")
  If(0,4,0)
   ShowMessageFace("alice_fc5",2,0,2,3)
   ShowMessage("\\n<Alice>大通りは通行できんな……迂回するぞ！")
   0()
  EndIf()
  If(0,5,0)
   ShowMessageFace("iriasu_fc4",7,0,2,4)
   ShowMessage("\\n<Ilias>大通りは通行できません……迂回しましょう！")
   0()
  EndIf()
  0()



EVENT   130
 PAGE   1
  ShowMessageFace("",0,0,2,1)
  ShowMessage("\\n<騎士>戦列を維持せよ！　一歩も引くな！")
  ShowMessageFace("vampire_fc1",0,0,2,2)
  ShowMessage("\\n<ヴァンパイア>サバサ騎兵部隊、一筋縄ではいかないわね……")
  If(0,4,0)
   ShowMessageFace("alice_fc5",2,0,2,3)
   ShowMessage("\\n<Alice>ここは騎兵隊に任せて、先に進むぞ！")
   0()
  EndIf()
  If(0,5,0)
   ShowMessageFace("iriasu_fc4",7,0,2,4)
   ShowMessage("\\n<Ilias>ここは騎兵隊に任せ、先に進みましょう！")
   0()
  EndIf()
  0()



EVENT   131
 PAGE   1
  ShowMessageFace("",0,0,2,1)
  ShowMessage("\\n<騎士>戦列を維持せよ！　一歩も引くな！")
  ShowMessageFace("vampire_fc1",0,0,2,2)
  ShowMessage("\\n<ヴァンパイア>サバサ騎兵部隊、一筋縄ではいかないわね……")
  If(0,4,0)
   ShowMessageFace("alice_fc5",2,0,2,3)
   ShowMessage("\\n<Alice>ここは騎兵隊に任せて、先に進むぞ！")
   0()
  EndIf()
  If(0,5,0)
   ShowMessageFace("iriasu_fc4",7,0,2,4)
   ShowMessage("\\n<Ilias>ここは騎兵隊に任せ、先に進みましょう！")
   0()
  EndIf()
  0()



EVENT   132
 PAGE   1
  ShowMessageFace("",0,0,2,1)
  ShowMessage("\\n<騎士>戦列を維持せよ！　一歩も引くな！")
  ShowMessageFace("vampire_fc1",0,0,2,2)
  ShowMessage("\\n<ヴァンパイア>サバサ騎兵部隊、一筋縄ではいかないわね……")
  If(0,4,0)
   ShowMessageFace("alice_fc5",2,0,2,3)
   ShowMessage("\\n<Alice>ここは騎兵隊に任せて、先に進むぞ！")
   0()
  EndIf()
  If(0,5,0)
   ShowMessageFace("iriasu_fc4",7,0,2,4)
   ShowMessage("\\n<Ilias>ここは騎兵隊に任せ、先に進みましょう！")
   0()
  EndIf()
  0()



EVENT   133
 PAGE   1
  RunCommonEvent(349)
  0()
 PAGE   2
  // condition: switch 2239 is ON
  0()



EVENT   134
 PAGE   1
  ShowMessageFace("",0,0,2,1)
  ShowMessage("\\n<騎士>戦列を維持せよ！　一歩も引くな！")
  ShowMessageFace("vampire_fc1",0,0,2,2)
  ShowMessage("\\n<ヴァンパイア>サバサ騎兵部隊、一筋縄ではいかないわね……")
  If(0,4,0)
   ShowMessageFace("alice_fc5",2,0,2,3)
   ShowMessage("\\n<Alice>ここは騎兵隊に任せて、先に進むぞ！")
   0()
  EndIf()
  If(0,5,0)
   ShowMessageFace("iriasu_fc4",7,0,2,4)
   ShowMessage("\\n<Ilias>ここは騎兵隊に任せ、先に進みましょう！")
   0()
  EndIf()
  0()



EVENT   135
 PAGE   1
  ShowMessageFace("",0,0,2,1)
  ShowMessage("\\n<騎士>戦列を維持せよ！　一歩も引くな！")
  ShowMessageFace("vampire_fc1",0,0,2,2)
  ShowMessage("\\n<ヴァンパイア>サバサ騎兵部隊、一筋縄ではいかないわね……")
  If(0,4,0)
   ShowMessageFace("alice_fc5",2,0,2,3)
   ShowMessage("\\n<Alice>ここは騎兵隊に任せて、先に進むぞ！")
   0()
  EndIf()
  If(0,5,0)
   ShowMessageFace("iriasu_fc4",7,0,2,4)
   ShowMessage("\\n<Ilias>ここは騎兵隊に任せ、先に進みましょう！")
   0()
  EndIf()
  0()



EVENT   136
 PAGE   1
  ShowMessageFace("",0,0,2,1)
  ShowMessage("\\n<騎士>戦列を維持せよ！　一歩も引くな！")
  ShowMessageFace("vampire_fc1",0,0,2,2)
  ShowMessage("\\n<ヴァンパイア>サバサ騎兵部隊、一筋縄ではいかないわね……")
  If(0,4,0)
   ShowMessageFace("alice_fc5",2,0,2,3)
   ShowMessage("\\n<Alice>ここは騎兵隊に任せて、先に進むぞ！")
   0()
  EndIf()
  If(0,5,0)
   ShowMessageFace("iriasu_fc4",7,0,2,4)
   ShowMessage("\\n<Ilias>ここは騎兵隊に任せ、先に進みましょう！")
   0()
  EndIf()
  0()



EVENT   137
 PAGE   1
  ShowMessageFace("",0,0,2,1)
  ShowMessage("\\n<騎士>つ、強い……")
  0()



EVENT   138
 PAGE   1
  ShowMessageFace("",0,0,2,1)
  ShowMessage("\\n<騎士>あれが高位の妖魔というものか……")
  0()



EVENT   139
 PAGE   1
  ShowMessageFace("",0,0,2,1)
  ShowMessage("\\n<Soldier>勝てる相手じゃない……")
  0()



EVENT   140
 PAGE   1
  ShowMessageFace("",0,0,2,1)
  ShowMessage("\\n<Soldier>どうやったら、あんなのと戦えるんだ……")
  0()



EVENT   141
 PAGE   1
  RunCommonEvent(349)
  0()
 PAGE   2
  // condition: switch 2239 is ON
  0()



EVENT   142
 PAGE   1
  RunCommonEvent(349)
  0()
 PAGE   2
  // condition: switch 2239 is ON
  0()



EVENT   143
 PAGE   1
  RunCommonEvent(349)
  0()
 PAGE   2
  // condition: switch 2239 is ON
  0()



EVENT   144
 PAGE   1
  RunCommonEvent(349)
  0()
 PAGE   2
  // condition: switch 2239 is ON
  0()



EVENT   145
 PAGE   1
  RunCommonEvent(349)
  0()
 PAGE   2
  // condition: switch 2239 is ON
  0()



EVENT   146
 PAGE   1
  RunCommonEvent(349)
  0()
 PAGE   2
  // condition: switch 2239 is ON
  0()



EVENT   147
 PAGE   1
  RunCommonEvent(349)
  0()
 PAGE   2
  // condition: switch 2239 is ON
  0()



EVENT   148
 PAGE   1
  ShowMessageFace("",0,0,2,1)
  ShowMessage("\\n<Old Woman>イリアス様、お救いを……")
  0()



EVENT   149
 PAGE   1
  ShowMessageFace("",0,0,2,1)
  ShowMessage("\\n<Soldier>まだ……戦える……")
  0()



EVENT   150
 PAGE   1
  ShowMessageFace("",0,0,2,1)
  ShowMessage("\\n<騎士>うぐぐぐ……")
  0()



EVENT   151
 PAGE   1
  ShowMessageFace("",0,0,2,1)
  ShowMessage("\\n<町娘>大丈夫ですか？　この薬を！")
  0()



EVENT   152
 PAGE   1
  ShowMessageFace("",0,0,2,1)
  ShowMessage("\\n<Soldier>ぐぅぅ……")
  0()



EVENT   153
 PAGE   1
  ShowMessageFace("",0,0,2,1)
  ShowMessage("\\n<騎士>か、かたじけない……")
  0()



EVENT   154
 PAGE   1
  ShowMessageFace("",0,0,2,1)
  ShowMessage("\\n<神父>お気を確かに！　体は動きますか？")
  0()



EVENT   155
 PAGE   1
  ShowMessageFace("",0,0,2,1)
  ShowMessage("\\n<Soldier>まだ、仲間が……戦って……")
  0()



EVENT   156
 PAGE   1
  ShowMessageFace("saboten_fc1",2,0,2,1)
  ShowMessage("\\n<サボテン娘>憩いの時間を返して下さるかしら……！")
  ShowMessageFace("conquista_fc1",0,0,2,2)
  ShowMessage("\\n<コンキスタ>トゲが刺さる……")
  0()



EVENT   157
 PAGE   1
  ShowMessageFace("saboten_fc1",2,0,2,1)
  ShowMessage("\\n<サボテン娘>憩いの時間を返して下さるかしら……！")
  ShowMessageFace("conquista_fc1",0,0,2,2)
  ShowMessage("\\n<コンキスタ>トゲが刺さる……")
  0()


