// EVENT 0078
Name "Skill: Play 381-390"

ChangeVariable(11,11,0,2,1,5)
If(1,100,0,382,0)
 If(1,11,0,1,0)
  ShowMessageFace("morrigan_fc1",0,0,2,1)
  ShowMessage("【モリガン】")
  ShowMessage("吹っ飛びな！")
  355("interrupt_skill(3038)")
  EndEventProcessing()
  0()
 EndIf()
 If(1,11,0,2,0)
  ShowMessageFace("morrigan_fc1",0,0,2,2)
  ShowMessage("【モリガン】")
  ShowMessage("腹が減ったな……何かないか？")
  ShowMessageFace("",0,0,2,3)
  ShowMessage("モリガンは食料を盗み食いしている……")
  EndEventProcessing()
  0()
 EndIf()
 If(1,11,0,3,0)
  ShowMessageFace("morrigan_fc1",0,0,2,4)
  ShowMessage("【モリガン】")
  ShowMessage("楽しくノリ良く行こうぜ！")
  ShowMessageFace("",0,0,2,5)
  ShowMessage("モリガンは陽気に歌って踊っている……")
  EndEventProcessing()
  0()
 EndIf()
 If(1,11,0,4,0)
  ShowMessageFace("morrigan_fc1",0,0,2,6)
  ShowMessage("【モリガン】")
  ShowMessage("ほら、やるよ！")
  ShowMessageFace("",0,0,2,7)
  ShowMessage("モリガンからの差し入れだ！")
  250(bytes(0x04,0x08,0x6f,0x3a,0x0c,0x52,0x50,0x47,0x3a,0x3a,0x53,0x45,0x08,0x3a,0x0a,0x40,0x6e,0x61,0x6d,0x65,0x49,0x22,0x0a,0x49,0x74,0x65,0x6d,0x31,0x06,0x3a,0x06,0x45,0x54,0x3a,0x0b,0x40,0x70,0x69,0x74,0x63,0x68,0x69,0x69,0x3a,0x0c,0x40,0x76,0x6f,0x6c,0x75,0x6d,0x65,0x69,0x55))
  ChangeInventory_Item(418,0,0,1)
  ShowMessageFace("",0,0,2,8)
  ShowMessage("「チョコケーキ」を手に入れた！")
  EndEventProcessing()
  0()
 EndIf()
 If(1,11,0,5,0)
  ShowMessageFace("morrigan_fc1",1,0,2,9)
  ShowMessage("【モリガン】")
  ShowMessage("ふふふっ……")
  355("interrupt_skill(3296)")
  EndEventProcessing()
  0()
 EndIf()
 0()
EndIf()
If(1,100,0,383,0)
 If(1,11,0,1,0)
  ShowMessageFace("eden_fc1",0,0,2,10)
  ShowMessage("【エデン】")
  ShowMessage("行きますよ……ふんっ！")
  355("interrupt_skill(3294)")
  EndEventProcessing()
  0()
 EndIf()
 If(1,11,0,2,0)
  ShowMessageFace("eden_fc1",0,0,2,11)
  ShowMessage("【エデン】")
  ShowMessage("私の応援が、チームに力を与えます……")
  355("interrupt_skill(3300)")
  EndEventProcessing()
  0()
 EndIf()
 If(1,11,0,3,0)
  ShowMessageFace("eden_fc1",0,0,2,12)
  ShowMessage("【エデン】")
  ShowMessage("プロメスティンにもらった薬品を使いましょう。")
  ShowMessage("確か、このＡ薬とＢ薬を混ぜ合わせて……")
  355("interrupt_skill(3306)")
  EndEventProcessing()
  0()
 EndIf()
 If(1,11,0,4,0)
  ShowMessageFace("eden_fc1",0,0,2,13)
  ShowMessage("【エデン】")
  ShowMessage("何か捕まえました。")
  ShowMessage("どうぞ、召し上がって下さい……")
  ShowMessageFace("",0,0,2,14)
  ShowMessage("エデンからの差し入れだ！")
  250(bytes(0x04,0x08,0x6f,0x3a,0x0c,0x52,0x50,0x47,0x3a,0x3a,0x53,0x45,0x08,0x3a,0x0a,0x40,0x6e,0x61,0x6d,0x65,0x49,0x22,0x0a,0x49,0x74,0x65,0x6d,0x31,0x06,0x3a,0x06,0x45,0x54,0x3a,0x0b,0x40,0x70,0x69,0x74,0x63,0x68,0x69,0x69,0x3a,0x0c,0x40,0x76,0x6f,0x6c,0x75,0x6d,0x65,0x69,0x55))
  ChangeInventory_Item(450,0,0,1)
  ShowMessageFace("",0,0,2,15)
  ShowMessage("「ちぃぱっぱ」を手に入れた！")
  EndEventProcessing()
  0()
 EndIf()
 If(1,11,0,5,0)
  ShowMessageFace("eden_fc1",0,0,2,16)
  ShowMessage("【エデン】")
  ShowMessage("イリアス様に祈りましょう……")
  355("interrupt_skill(3302)")
  EndEventProcessing()
  0()
 EndIf()
 0()
EndIf()
0()
